%YAML 1.1
%TAG !u! tag:unity3d.com,2011:
--- !u!114 &11400000
MonoBehaviour:
  m_ObjectHideFlags: 0
  m_PrefabParentObject: {fileID: 0}
  m_PrefabInternal: {fileID: 0}
  m_GameObject: {fileID: 0}
  m_Enabled: 1
  m_EditorHideFlags: 0
  m_Script: {fileID: 11500000, guid: 1cae2f5e5cd144c01b4028cc28a5f1d6, type: 3}
  m_Name: TinyCityTheme_CustomBlocks
  m_EditorClassIdentifier: 
  indexCounter:
    index: 8
  topZIndex:
    index: 107
  nodes:
  - {fileID: 114528648017249224}
  - {fileID: 114948883630233088}
  - {fileID: 114358860242205014}
  - {fileID: 114264496882720116}
  - {fileID: 114677499370849114}
  - {fileID: 114636313743029648}
  - {fileID: 114935446475548486}
  - {fileID: 114479058885825874}
  - {fileID: 114558672198259774}
  links:
  - {fileID: 114796058152657964}
  - {fileID: 114975777695241568}
  - {fileID: 114685675355530232}
  - {fileID: 114466553966858420}
  - {fileID: 114019672048976906}
  - {fileID: 114645574266393988}
--- !u!114 &114019672048976906
MonoBehaviour:
  m_ObjectHideFlags: 1
  m_PrefabParentObject: {fileID: 0}
  m_PrefabInternal: {fileID: 0}
  m_GameObject: {fileID: 0}
  m_Enabled: 1
  m_EditorHideFlags: 0
  m_Script: {fileID: 11500000, guid: c1574844e380142bb9f5e4a8003b85a1, type: 3}
  m_Name: Link_5
  m_EditorClassIdentifier: 
  id: 5
  input: {fileID: 114253409102125038}
  output: {fileID: 114578742884000458}
  graph: {fileID: 11400000}
--- !u!114 &114043504949082360
MonoBehaviour:
  m_ObjectHideFlags: 1
  m_PrefabParentObject: {fileID: 0}
  m_PrefabInternal: {fileID: 0}
  m_GameObject: {fileID: 0}
  m_Enabled: 1
  m_EditorHideFlags: 0
  m_Script: {fileID: 11500000, guid: 15a4af758c5024ee3ad022895232667f, type: 3}
  m_Name: _OutputPin
  m_EditorClassIdentifier: 
  pinType: 1
  node: {fileID: 114558672198259774}
  position: {x: 60, y: 120}
  boundsOffset:
    serializedVersion: 2
    x: -40
    y: -15
    width: 80
    height: 15
  tangent: {x: 0, y: 1}
  tangentStrength: 50
--- !u!114 &114137899286671744
MonoBehaviour:
  m_ObjectHideFlags: 1
  m_PrefabParentObject: {fileID: 0}
  m_PrefabInternal: {fileID: 0}
  m_GameObject: {fileID: 0}
  m_Enabled: 1
  m_EditorHideFlags: 0
  m_Script: {fileID: 11500000, guid: 15a4af758c5024ee3ad022895232667f, type: 3}
  m_Name: MarkerNode_54f926f3-ecfe-42c7-ae18-690597e970f6_OutputPin
  m_EditorClassIdentifier: 
  pinType: 1
  node: {fileID: 114528648017249224}
  position: {x: 60, y: 48}
  boundsOffset:
    serializedVersion: 2
    x: -40
    y: -15
    width: 80
    height: 15
  tangent: {x: 0, y: 1}
  tangentStrength: 50
--- !u!114 &114169544968608424
MonoBehaviour:
  m_ObjectHideFlags: 1
  m_PrefabParentObject: {fileID: 0}
  m_PrefabInternal: {fileID: 0}
  m_GameObject: {fileID: 0}
  m_Enabled: 1
  m_EditorHideFlags: 0
  m_Script: {fileID: 11500000, guid: 15a4af758c5024ee3ad022895232667f, type: 3}
  m_Name: _OutputPin
  m_EditorClassIdentifier: 
  pinType: 1
  node: {fileID: 114479058885825874}
  position: {x: 60, y: 120}
  boundsOffset:
    serializedVersion: 2
    x: -40
    y: -15
    width: 80
    height: 15
  tangent: {x: 0, y: 1}
  tangentStrength: 50
--- !u!114 &114207121893753028
MonoBehaviour:
  m_ObjectHideFlags: 1
  m_PrefabParentObject: {fileID: 0}
  m_PrefabInternal: {fileID: 0}
  m_GameObject: {fileID: 0}
  m_Enabled: 1
  m_EditorHideFlags: 0
  m_Script: {fileID: 11500000, guid: 15a4af758c5024ee3ad022895232667f, type: 3}
  m_Name: _InputPin
  m_EditorClassIdentifier: 
  pinType: 0
  node: {fileID: 114558672198259774}
  position: {x: 60, y: 0}
  boundsOffset:
    serializedVersion: 2
    x: -40
    y: 0
    width: 80
    height: 15
  tangent: {x: 0, y: -1}
  tangentStrength: 50
--- !u!114 &114253409102125038
MonoBehaviour:
  m_ObjectHideFlags: 1
  m_PrefabParentObject: {fileID: 0}
  m_PrefabInternal: {fileID: 0}
  m_GameObject: {fileID: 0}
  m_Enabled: 1
  m_EditorHideFlags: 0
  m_Script: {fileID: 11500000, guid: 15a4af758c5024ee3ad022895232667f, type: 3}
  m_Name: _InputPin
  m_EditorClassIdentifier: 
  pinType: 0
  node: {fileID: 114479058885825874}
  position: {x: 60, y: 0}
  boundsOffset:
    serializedVersion: 2
    x: -40
    y: 0
    width: 80
    height: 15
  tangent: {x: 0, y: -1}
  tangentStrength: 50
--- !u!114 &114264496882720116
MonoBehaviour:
  m_ObjectHideFlags: 1
  m_PrefabParentObject: {fileID: 0}
  m_PrefabInternal: {fileID: 0}
  m_GameObject: {fileID: 0}
  m_Enabled: 1
  m_EditorHideFlags: 0
  m_Script: {fileID: 11500000, guid: 4f86a247f92be461b8448085107abfca, type: 3}
  m_Name: MarkerNode_228aa80f-e18b-4d59-a1bf-a59eec97c89b
  m_EditorClassIdentifier: 
  id: 228aa80f-e18b-4d59-a1bf-a59eec97c89b
  caption: MyBlock2x2
  bounds:
    serializedVersion: 2
    x: 402
    y: 69.5
    width: 120
    height: 50
  selected: 0
  zIndex: 54
  inputPins: []
  outputPins:
  - {fileID: 114995128460100924}
  graph: {fileID: 11400000}
--- !u!114 &114311701026918026
MonoBehaviour:
  m_ObjectHideFlags: 1
  m_PrefabParentObject: {fileID: 0}
  m_PrefabInternal: {fileID: 0}
  m_GameObject: {fileID: 0}
  m_Enabled: 1
  m_EditorHideFlags: 0
  m_Script: {fileID: 11500000, guid: 15a4af758c5024ee3ad022895232667f, type: 3}
  m_Name: _InputPin
  m_EditorClassIdentifier: 
  pinType: 0
  node: {fileID: 114948883630233088}
  position: {x: 60, y: 0}
  boundsOffset:
    serializedVersion: 2
    x: -40
    y: 0
    width: 80
    height: 15
  tangent: {x: 0, y: -1}
  tangentStrength: 50
--- !u!114 &114312350757471846
MonoBehaviour:
  m_ObjectHideFlags: 1
  m_PrefabParentObject: {fileID: 0}
  m_PrefabInternal: {fileID: 0}
  m_GameObject: {fileID: 0}
  m_Enabled: 1
  m_EditorHideFlags: 0
  m_Script: {fileID: 11500000, guid: 15a4af758c5024ee3ad022895232667f, type: 3}
  m_Name: _OutputPin
  m_EditorClassIdentifier: 
  pinType: 1
  node: {fileID: 114677499370849114}
  position: {x: 60, y: 120}
  boundsOffset:
    serializedVersion: 2
    x: -40
    y: -15
    width: 80
    height: 15
  tangent: {x: 0, y: 1}
  tangentStrength: 50
--- !u!114 &114342750354818956
MonoBehaviour:
  m_ObjectHideFlags: 1
  m_PrefabParentObject: {fileID: 0}
  m_PrefabInternal: {fileID: 0}
  m_GameObject: {fileID: 0}
  m_Enabled: 1
  m_EditorHideFlags: 0
  m_Script: {fileID: 11500000, guid: 15a4af758c5024ee3ad022895232667f, type: 3}
  m_Name: _OutputPin
  m_EditorClassIdentifier: 
  pinType: 1
  node: {fileID: 114358860242205014}
  position: {x: 60, y: 120}
  boundsOffset:
    serializedVersion: 2
    x: -40
    y: -15
    width: 80
    height: 15
  tangent: {x: 0, y: 1}
  tangentStrength: 50
--- !u!114 &114349654765167738
MonoBehaviour:
  m_ObjectHideFlags: 1
  m_PrefabParentObject: {fileID: 0}
  m_PrefabInternal: {fileID: 0}
  m_GameObject: {fileID: 0}
  m_Enabled: 1
  m_EditorHideFlags: 0
  m_Script: {fileID: 11500000, guid: 15a4af758c5024ee3ad022895232667f, type: 3}
  m_Name: _InputPin
  m_EditorClassIdentifier: 
  pinType: 0
  node: {fileID: 114677499370849114}
  position: {x: 60, y: 0}
  boundsOffset:
    serializedVersion: 2
    x: -40
    y: 0
    width: 80
    height: 15
  tangent: {x: 0, y: -1}
  tangentStrength: 50
--- !u!114 &114358860242205014
MonoBehaviour:
  m_ObjectHideFlags: 1
  m_PrefabParentObject: {fileID: 0}
  m_PrefabInternal: {fileID: 0}
  m_GameObject: {fileID: 0}
  m_Enabled: 1
  m_EditorHideFlags: 0
  m_Script: {fileID: 11500000, guid: dfc1d246dd77b46a4aee970ab911ea63, type: 3}
  m_Name: MeshNode_3c8e818e-876a-4209-ab4e-c57c56578a22
  m_EditorClassIdentifier: 
  id: 3c8e818e-876a-4209-ab4e-c57c56578a22
  caption: Game Object Node
  bounds:
    serializedVersion: 2
    x: 91
    y: 183.33202
    width: 120
    height: 120
  selected: 0
  zIndex: 106
  inputPins:
  - {fileID: 114465724167119972}
  outputPins:
  - {fileID: 114342750354818956}
  graph: {fileID: 11400000}
  offset:
    e00: 2
    e01: 0
    e02: 0
    e03: 0
    e10: 0
    e11: 1
    e12: 0
    e13: 0.5
    e20: 0
    e21: 0
    e22: 4
    e23: 0
    e30: 0
    e31: 0
    e32: 0
    e33: 1
  consumeOnAttach: 0
  attachmentProbability: 1
  IsStatic: 1
  affectsNavigation: 0
  selectionRuleEnabled: 0
  selectionRuleClassName: 
  transformRuleEnabled: 0
  transformRuleClassName: 
  useSpatialConstraint: 0
  spatialConstraint: {fileID: 0}
  Template: {fileID: 195510, guid: b5bac985f5aac2a44bb913fd1076f084, type: 2}
--- !u!114 &114465724167119972
MonoBehaviour:
  m_ObjectHideFlags: 1
  m_PrefabParentObject: {fileID: 0}
  m_PrefabInternal: {fileID: 0}
  m_GameObject: {fileID: 0}
  m_Enabled: 1
  m_EditorHideFlags: 0
  m_Script: {fileID: 11500000, guid: 15a4af758c5024ee3ad022895232667f, type: 3}
  m_Name: _InputPin
  m_EditorClassIdentifier: 
  pinType: 0
  node: {fileID: 114358860242205014}
  position: {x: 60, y: 0}
  boundsOffset:
    serializedVersion: 2
    x: -40
    y: 0
    width: 80
    height: 15
  tangent: {x: 0, y: -1}
  tangentStrength: 50
--- !u!114 &114466553966858420
MonoBehaviour:
  m_ObjectHideFlags: 1
  m_PrefabParentObject: {fileID: 0}
  m_PrefabInternal: {fileID: 0}
  m_GameObject: {fileID: 0}
  m_Enabled: 1
  m_EditorHideFlags: 0
  m_Script: {fileID: 11500000, guid: c1574844e380142bb9f5e4a8003b85a1, type: 3}
  m_Name: Link_4
  m_EditorClassIdentifier: 
  id: 4
  input: {fileID: 114563989965044300}
  output: {fileID: 114995128460100924}
  graph: {fileID: 11400000}
--- !u!114 &114474771345565844
MonoBehaviour:
  m_ObjectHideFlags: 1
  m_PrefabParentObject: {fileID: 0}
  m_PrefabInternal: {fileID: 0}
  m_GameObject: {fileID: 0}
  m_Enabled: 1
  m_EditorHideFlags: 0
  m_Script: {fileID: 11500000, guid: 15a4af758c5024ee3ad022895232667f, type: 3}
  m_Name: _OutputPin
  m_EditorClassIdentifier: 
  pinType: 1
  node: {fileID: 114948883630233088}
  position: {x: 60, y: 120}
  boundsOffset:
    serializedVersion: 2
    x: -40
    y: -15
    width: 80
    height: 15
  tangent: {x: 0, y: 1}
  tangentStrength: 50
--- !u!114 &114479058885825874
MonoBehaviour:
  m_ObjectHideFlags: 1
  m_PrefabParentObject: {fileID: 0}
  m_PrefabInternal: {fileID: 0}
  m_GameObject: {fileID: 0}
  m_Enabled: 1
  m_EditorHideFlags: 0
  m_Script: {fileID: 11500000, guid: dfc1d246dd77b46a4aee970ab911ea63, type: 3}
  m_Name: MeshNode_4d41a2ac-1c81-4a3b-8d49-c5a3e57b2d70
  m_EditorClassIdentifier: 
  id: 4d41a2ac-1c81-4a3b-8d49-c5a3e57b2d70
  caption: Game Object Node
  bounds:
    serializedVersion: 2
    x: 726
    y: 181.5
    width: 120
    height: 120
  selected: 0
  zIndex: 103
  inputPins:
  - {fileID: 114253409102125038}
  outputPins:
  - {fileID: 114169544968608424}
  graph: {fileID: 11400000}
  offset:
    e00: 3
    e01: 0
    e02: 0
    e03: 0
    e10: 0
    e11: 1
    e12: 0
    e13: 0
    e20: 0
    e21: 0
    e22: 4
    e23: 0
    e30: 0
    e31: 0
    e32: 0
    e33: 1
  consumeOnAttach: 0
  attachmentProbability: 1
  IsStatic: 1
  affectsNavigation: 0
  selectionRuleEnabled: 0
  selectionRuleClassName: 
  transformRuleEnabled: 0
  transformRuleClassName: 
  useSpatialConstraint: 0
  spatialConstraint: {fileID: 0}
  Template: {fileID: 100000, guid: 48c57086ef99f004db0f86b8cc45a71b, type: 3}
--- !u!114 &114528648017249224
MonoBehaviour:
  m_ObjectHideFlags: 1
  m_PrefabParentObject: {fileID: 0}
  m_PrefabInternal: {fileID: 0}
  m_GameObject: {fileID: 0}
  m_Enabled: 1
  m_EditorHideFlags: 0
  m_Script: {fileID: 11500000, guid: 4f86a247f92be461b8448085107abfca, type: 3}
  m_Name: MarkerNode_54f926f3-ecfe-42c7-ae18-690597e970f6
  m_EditorClassIdentifier: 
  id: 54f926f3-ecfe-42c7-ae18-690597e970f6
  caption: MyBlock1x2
  bounds:
    serializedVersion: 2
    x: -4
    y: 61.5
    width: 120
    height: 50
  selected: 0
  zIndex: 18
  inputPins: []
  outputPins:
  - {fileID: 114137899286671744}
  graph: {fileID: 11400000}
--- !u!114 &114558672198259774
MonoBehaviour:
  m_ObjectHideFlags: 1
  m_PrefabParentObject: {fileID: 0}
  m_PrefabInternal: {fileID: 0}
  m_GameObject: {fileID: 0}
  m_Enabled: 1
  m_EditorHideFlags: 0
  m_Script: {fileID: 11500000, guid: dfc1d246dd77b46a4aee970ab911ea63, type: 3}
  m_Name: MeshNode_4749c8bc-0bc1-48b3-b364-83fdd7fc6492
  m_EditorClassIdentifier: 
  id: 4749c8bc-0bc1-48b3-b364-83fdd7fc6492
  caption: Game Object Node
  bounds:
    serializedVersion: 2
    x: 870
    y: 182.5
    width: 120
    height: 120
  selected: 0
  zIndex: 102
  inputPins:
  - {fileID: 114207121893753028}
  outputPins:
  - {fileID: 114043504949082360}
  graph: {fileID: 11400000}
  offset:
    e00: 6
    e01: 0
    e02: 0
    e03: 0
    e10: 0
    e11: 1
    e12: 0
    e13: 0
    e20: 0
    e21: 0
    e22: 8
    e23: 0
    e30: 0
    e31: 0
    e32: 0
    e33: 1
  consumeOnAttach: 1
  attachmentProbability: 1
  IsStatic: 1
  affectsNavigation: 0
  selectionRuleEnabled: 0
  selectionRuleClassName: 
  transformRuleEnabled: 0
  transformRuleClassName: 
  useSpatialConstraint: 0
  spatialConstraint: {fileID: 0}
  Template: {fileID: 195510, guid: ee5920b14a854aa44b60a740a8285cdc, type: 2}
--- !u!114 &114563989965044300
MonoBehaviour:
  m_ObjectHideFlags: 1
  m_PrefabParentObject: {fileID: 0}
  m_PrefabInternal: {fileID: 0}
  m_GameObject: {fileID: 0}
  m_Enabled: 1
  m_EditorHideFlags: 0
  m_Script: {fileID: 11500000, guid: 15a4af758c5024ee3ad022895232667f, type: 3}
  m_Name: _InputPin
  m_EditorClassIdentifier: 
  pinType: 0
  node: {fileID: 114636313743029648}
  position: {x: 60, y: 0}
  boundsOffset:
    serializedVersion: 2
    x: -40
    y: 0
    width: 80
    height: 15
  tangent: {x: 0, y: -1}
  tangentStrength: 50
--- !u!114 &114578742884000458
MonoBehaviour:
  m_ObjectHideFlags: 1
  m_PrefabParentObject: {fileID: 0}
  m_PrefabInternal: {fileID: 0}
  m_GameObject: {fileID: 0}
  m_Enabled: 1
  m_EditorHideFlags: 0
  m_Script: {fileID: 11500000, guid: 15a4af758c5024ee3ad022895232667f, type: 3}
  m_Name: MarkerNode_d9bde873-2960-4618-87e7-8fdf6b3fd1f0_OutputPin
  m_EditorClassIdentifier: 
  pinType: 1
  node: {fileID: 114935446475548486}
  position: {x: 60, y: 48}
  boundsOffset:
    serializedVersion: 2
    x: -40
    y: -15
    width: 80
    height: 15
  tangent: {x: 0, y: 1}
  tangentStrength: 50
--- !u!114 &114636313743029648
MonoBehaviour:
  m_ObjectHideFlags: 1
  m_PrefabParentObject: {fileID: 0}
  m_PrefabInternal: {fileID: 0}
  m_GameObject: {fileID: 0}
  m_Enabled: 1
  m_EditorHideFlags: 0
  m_Script: {fileID: 11500000, guid: dfc1d246dd77b46a4aee970ab911ea63, type: 3}
  m_Name: MeshNode_173913ea-a256-408e-9dde-841e1f8de8a9
  m_EditorClassIdentifier: 
  id: 173913ea-a256-408e-9dde-841e1f8de8a9
  caption: Game Object Node
  bounds:
    serializedVersion: 2
    x: 483
    y: 173.5
    width: 120
    height: 120
  selected: 0
  zIndex: 79
  inputPins:
  - {fileID: 114563989965044300}
  outputPins:
  - {fileID: 114783007864219240}
  graph: {fileID: 11400000}
  offset:
    e00: 4
    e01: 0
    e02: 0
    e03: 0
    e10: 0
    e11: 3
    e12: 0
    e13: 0.5
    e20: 0
    e21: 0
    e22: 4
    e23: 0
    e30: 0
    e31: 0
    e32: 0
    e33: 1
  consumeOnAttach: 1
  attachmentProbability: 1
  IsStatic: 1
  affectsNavigation: 0
  selectionRuleEnabled: 0
  selectionRuleClassName: 
  transformRuleEnabled: 0
  transformRuleClassName: 
  useSpatialConstraint: 0
  spatialConstraint: {fileID: 0}
  Template: {fileID: 195510, guid: ae1a21d4460a34f4db70517976c79116, type: 2}
--- !u!114 &114645574266393988
MonoBehaviour:
  m_ObjectHideFlags: 1
  m_PrefabParentObject: {fileID: 0}
  m_PrefabInternal: {fileID: 0}
  m_GameObject: {fileID: 0}
  m_Enabled: 1
  m_EditorHideFlags: 0
  m_Script: {fileID: 11500000, guid: c1574844e380142bb9f5e4a8003b85a1, type: 3}
  m_Name: Link_8
  m_EditorClassIdentifier: 
  id: 8
  input: {fileID: 114207121893753028}
  output: {fileID: 114578742884000458}
  graph: {fileID: 11400000}
--- !u!114 &114677499370849114
MonoBehaviour:
  m_ObjectHideFlags: 1
  m_PrefabParentObject: {fileID: 0}
  m_PrefabInternal: {fileID: 0}
  m_GameObject: {fileID: 0}
  m_Enabled: 1
  m_EditorHideFlags: 0
  m_Script: {fileID: 11500000, guid: dfc1d246dd77b46a4aee970ab911ea63, type: 3}
  m_Name: MeshNode_a726d8b8-22bb-4010-a342-f0a1e3646280
  m_EditorClassIdentifier: 
  id: a726d8b8-22bb-4010-a342-f0a1e3646280
  caption: Game Object Node
  bounds:
    serializedVersion: 2
    x: 333
    y: 177.5
    width: 120
    height: 120
  selected: 0
  zIndex: 104
  inputPins:
  - {fileID: 114349654765167738}
  outputPins:
  - {fileID: 114312350757471846}
  graph: {fileID: 11400000}
  offset:
    e00: 2
    e01: 0
    e02: 0
    e03: 0
    e10: 0
    e11: 1
    e12: 0
    e13: 0
    e20: 0
    e21: 0
    e22: 2
    e23: 0
    e30: 0
    e31: 0
    e32: 0
    e33: 1
  consumeOnAttach: 0
  attachmentProbability: 1
  IsStatic: 1
  affectsNavigation: 0
  selectionRuleEnabled: 0
  selectionRuleClassName: 
  transformRuleEnabled: 0
  transformRuleClassName: 
  useSpatialConstraint: 0
  spatialConstraint: {fileID: 0}
  Template: {fileID: 100000, guid: 48c57086ef99f004db0f86b8cc45a71b, type: 3}
--- !u!114 &114685675355530232
MonoBehaviour:
  m_ObjectHideFlags: 1
  m_PrefabParentObject: {fileID: 0}
  m_PrefabInternal: {fileID: 0}
  m_GameObject: {fileID: 0}
  m_Enabled: 1
  m_EditorHideFlags: 0
  m_Script: {fileID: 11500000, guid: c1574844e380142bb9f5e4a8003b85a1, type: 3}
  m_Name: Link_3
  m_EditorClassIdentifier: 
  id: 3
  input: {fileID: 114349654765167738}
  output: {fileID: 114995128460100924}
  graph: {fileID: 11400000}
--- !u!114 &114783007864219240
MonoBehaviour:
  m_ObjectHideFlags: 1
  m_PrefabParentObject: {fileID: 0}
  m_PrefabInternal: {fileID: 0}
  m_GameObject: {fileID: 0}
  m_Enabled: 1
  m_EditorHideFlags: 0
  m_Script: {fileID: 11500000, guid: 15a4af758c5024ee3ad022895232667f, type: 3}
  m_Name: _OutputPin
  m_EditorClassIdentifier: 
  pinType: 1
  node: {fileID: 114636313743029648}
  position: {x: 60, y: 120}
  boundsOffset:
    serializedVersion: 2
    x: -40
    y: -15
    width: 80
    height: 15
  tangent: {x: 0, y: 1}
  tangentStrength: 50
--- !u!114 &114796058152657964
MonoBehaviour:
  m_ObjectHideFlags: 1
  m_PrefabParentObject: {fileID: 0}
  m_PrefabInternal: {fileID: 0}
  m_GameObject: {fileID: 0}
  m_Enabled: 1
  m_EditorHideFlags: 0
  m_Script: {fileID: 11500000, guid: c1574844e380142bb9f5e4a8003b85a1, type: 3}
  m_Name: Link_1
  m_EditorClassIdentifier: 
  id: 1
  input: {fileID: 114311701026918026}
  output: {fileID: 114137899286671744}
  graph: {fileID: 11400000}
--- !u!114 &114935446475548486
MonoBehaviour:
  m_ObjectHideFlags: 1
  m_PrefabParentObject: {fileID: 0}
  m_PrefabInternal: {fileID: 0}
  m_GameObject: {fileID: 0}
  m_Enabled: 1
  m_EditorHideFlags: 0
  m_Script: {fileID: 11500000, guid: 4f86a247f92be461b8448085107abfca, type: 3}
  m_Name: MarkerNode_d9bde873-2960-4618-87e7-8fdf6b3fd1f0
  m_EditorClassIdentifier: 
  id: d9bde873-2960-4618-87e7-8fdf6b3fd1f0
  caption: MyBlock3x4
  bounds:
    serializedVersion: 2
    x: 803
    y: 79.5
    width: 120
    height: 50
  selected: 0
  zIndex: 101
  inputPins: []
  outputPins:
  - {fileID: 114578742884000458}
  graph: {fileID: 11400000}
--- !u!114 &114948883630233088
MonoBehaviour:
  m_ObjectHideFlags: 1
  m_PrefabParentObject: {fileID: 0}
  m_PrefabInternal: {fileID: 0}
  m_GameObject: {fileID: 0}
  m_Enabled: 1
  m_EditorHideFlags: 0
  m_Script: {fileID: 11500000, guid: dfc1d246dd77b46a4aee970ab911ea63, type: 3}
  m_Name: MeshNode_83cbe62e-6468-4d5f-b0cc-3a2d48073a57
  m_EditorClassIdentifier: 
  id: 83cbe62e-6468-4d5f-b0cc-3a2d48073a57
  caption: Game Object Node
  bounds:
    serializedVersion: 2
    x: -102
    y: 187.5
    width: 120
    height: 120
  selected: 0
  zIndex: 107
  inputPins:
  - {fileID: 114311701026918026}
  outputPins:
  - {fileID: 114474771345565844}
  graph: {fileID: 11400000}
  offset:
    e00: 1
    e01: 0
    e02: 0
    e03: 0
    e10: 0
    e11: 1
    e12: 0
    e13: 0
    e20: 0
    e21: 0
    e22: 2
    e23: 0
    e30: 0
    e31: 0
    e32: 0
    e33: 1
  consumeOnAttach: 0
  attachmentProbability: 1
  IsStatic: 1
  affectsNavigation: 0
  selectionRuleEnabled: 0
  selectionRuleClassName: 
  transformRuleEnabled: 0
  transformRuleClassName: 
  useSpatialConstraint: 0
  spatialConstraint: {fileID: 0}
  Template: {fileID: 100000, guid: 48c57086ef99f004db0f86b8cc45a71b, type: 3}
--- !u!114 &114975777695241568
MonoBehaviour:
  m_ObjectHideFlags: 1
  m_PrefabParentObject: {fileID: 0}
  m_PrefabInternal: {fileID: 0}
  m_GameObject: {fileID: 0}
  m_Enabled: 1
  m_EditorHideFlags: 0
  m_Script: {fileID: 11500000, guid: c1574844e380142bb9f5e4a8003b85a1, type: 3}
  m_Name: Link_2
  m_EditorClassIdentifier: 
  id: 2
  input: {fileID: 114465724167119972}
  output: {fileID: 114137899286671744}
  graph: {fileID: 11400000}
--- !u!114 &114995128460100924
MonoBehaviour:
  m_ObjectHideFlags: 1
  m_PrefabParentObject: {fileID: 0}
  m_PrefabInternal: {fileID: 0}
  m_GameObject: {fileID: 0}
  m_Enabled: 1
  m_EditorHideFlags: 0
  m_Script: {fileID: 11500000, guid: 15a4af758c5024ee3ad022895232667f, type: 3}
  m_Name: MarkerNode_228aa80f-e18b-4d59-a1bf-a59eec97c89b_OutputPin
  m_EditorClassIdentifier: 
  pinType: 1
  node: {fileID: 114264496882720116}
  position: {x: 60, y: 48}
  boundsOffset:
    serializedVersion: 2
    x: -40
    y: -15
    width: 80
    height: 15
  tangent: {x: 0, y: 1}
  tangentStrength: 50
