%YAML 1.1
%TAG !u! tag:unity3d.com,2011:
--- !u!114 &11400000
MonoBehaviour:
  m_ObjectHideFlags: 0
  m_PrefabParentObject: {fileID: 0}
  m_PrefabInternal: {fileID: 0}
  m_GameObject: {fileID: 0}
  m_Enabled: 1
  m_EditorHideFlags: 0
  m_Script: {fileID: 11500000, guid: 1cae2f5e5cd144c01b4028cc28a5f1d6, type: 3}
  m_Name: UrbanCityTheme
  m_EditorClassIdentifier: 
  indexCounter:
    index: 37
  topZIndex:
    index: 431
  nodes:
  - {fileID: 11435212}
  - {fileID: 11414310}
  - {fileID: 11410838}
  - {fileID: 11438840}
  - {fileID: 11479418}
  - {fileID: 11461010}
  - {fileID: 11452804}
  - {fileID: 11481488}
  - {fileID: 11462562}
  - {fileID: 11478338}
  - {fileID: 11417306}
  - {fileID: 11478724}
  - {fileID: 11477570}
  - {fileID: 11454370}
  - {fileID: 11424086}
  - {fileID: 11401608}
  - {fileID: 11438914}
  - {fileID: 11424354}
  - {fileID: 11458508}
  - {fileID: 11471072}
  - {fileID: 11431238}
  - {fileID: 11413706}
  - {fileID: 11416624}
  - {fileID: 11433168}
  - {fileID: 11420236}
  - {fileID: 114000012801009586}
  - {fileID: 114000011047262866}
  - {fileID: 114727457445623044}
  - {fileID: 114464953135632762}
  - {fileID: 114984221254245064}
  - {fileID: 114341144015542314}
  - {fileID: 114780001093499740}
  - {fileID: 114631304212896266}
  - {fileID: 114555208171654610}
  - {fileID: 114604811437702678}
  - {fileID: 114350947846536044}
  - {fileID: 114168477808469442}
  - {fileID: 114446289721893796}
  - {fileID: 114639122578617648}
  - {fileID: 114971168132567784}
  - {fileID: 114788849738523656}
  - {fileID: 114814002287649958}
  - {fileID: 114334669898714102}
  links:
  - {fileID: 11418612}
  - {fileID: 11405202}
  - {fileID: 11420112}
  - {fileID: 11414556}
  - {fileID: 11402948}
  - {fileID: 11403616}
  - {fileID: 11490222}
  - {fileID: 11456570}
  - {fileID: 11463850}
  - {fileID: 11438536}
  - {fileID: 11424190}
  - {fileID: 11433684}
  - {fileID: 114000012771783108}
  - {fileID: 114975507789600128}
  - {fileID: 114609606235136940}
  - {fileID: 114621726199821282}
  - {fileID: 114287878555965450}
  - {fileID: 114316358937074142}
  - {fileID: 114362866310392414}
  - {fileID: 114922695413392476}
  - {fileID: 114767092263252116}
  - {fileID: 114007623053704018}
  - {fileID: 114945794888715148}
  - {fileID: 114259004682371248}
--- !u!114 &11401574
MonoBehaviour:
  m_ObjectHideFlags: 1
  m_PrefabParentObject: {fileID: 0}
  m_PrefabInternal: {fileID: 0}
  m_GameObject: {fileID: 0}
  m_Enabled: 1
  m_EditorHideFlags: 0
  m_Script: {fileID: 11500000, guid: 15a4af758c5024ee3ad022895232667f, type: 3}
  m_Name: _OutputPin
  m_EditorClassIdentifier: 
  pinType: 1
  node: {fileID: 11410838}
  position: {x: 60, y: 120}
  boundsOffset:
    serializedVersion: 2
    x: -40
    y: -15
    width: 80
    height: 15
  tangent: {x: 0, y: 1}
  tangentStrength: 50
--- !u!114 &11401608
MonoBehaviour:
  m_ObjectHideFlags: 1
  m_PrefabParentObject: {fileID: 0}
  m_PrefabInternal: {fileID: 0}
  m_GameObject: {fileID: 0}
  m_Enabled: 1
  m_EditorHideFlags: 0
  m_Script: {fileID: 11500000, guid: dfc1d246dd77b46a4aee970ab911ea63, type: 3}
  m_Name: MeshNode_e2f0291e-6656-43e8-9fc5-0d54347ee048
  m_EditorClassIdentifier: 
  id: e2f0291e-6656-43e8-9fc5-0d54347ee048
  caption: Game Object Node
  bounds:
    serializedVersion: 2
    x: -282.63635
    y: 317.9091
    width: 120
    height: 120
  selected: 0
  zIndex: 239
  inputPins:
  - {fileID: 11426760}
  outputPins:
  - {fileID: 11476336}
  graph: {fileID: 11400000}
  offset:
    e00: 0.000000059604645
    e01: 0
    e02: 0.99999994
    e03: 0
    e10: 0
    e11: 1
    e12: 0
    e13: 0
    e20: -0.99999994
    e21: 0
    e22: 0.000000059604645
    e23: 0
    e30: 0
    e31: 0
    e32: 0
    e33: 1
  consumeOnAttach: 1
  attachmentProbability: 1
  IsStatic: 1
  affectsNavigation: 0
  selectionRuleEnabled: 0
  selectionRuleClassName: 
  transformRuleEnabled: 0
  transformRuleClassName: 
  useSpatialConstraint: 0
  spatialConstraint: {fileID: 0}
  Template: {fileID: 137074, guid: 9fe7b502402e5d040babe758f7d05fc2, type: 2}
--- !u!114 &11402948
MonoBehaviour:
  m_ObjectHideFlags: 1
  m_PrefabParentObject: {fileID: 0}
  m_PrefabInternal: {fileID: 0}
  m_GameObject: {fileID: 0}
  m_Enabled: 1
  m_EditorHideFlags: 0
  m_Script: {fileID: 11500000, guid: c1574844e380142bb9f5e4a8003b85a1, type: 3}
  m_Name: Link_12
  m_EditorClassIdentifier: 
  id: 12
  input: {fileID: 11477348}
  output: {fileID: 11475696}
  graph: {fileID: 11400000}
--- !u!114 &11403616
MonoBehaviour:
  m_ObjectHideFlags: 1
  m_PrefabParentObject: {fileID: 0}
  m_PrefabInternal: {fileID: 0}
  m_GameObject: {fileID: 0}
  m_Enabled: 1
  m_EditorHideFlags: 0
  m_Script: {fileID: 11500000, guid: c1574844e380142bb9f5e4a8003b85a1, type: 3}
  m_Name: Link_13
  m_EditorClassIdentifier: 
  id: 13
  input: {fileID: 11441346}
  output: {fileID: 11409654}
  graph: {fileID: 11400000}
--- !u!114 &11405202
MonoBehaviour:
  m_ObjectHideFlags: 1
  m_PrefabParentObject: {fileID: 0}
  m_PrefabInternal: {fileID: 0}
  m_GameObject: {fileID: 0}
  m_Enabled: 1
  m_EditorHideFlags: 0
  m_Script: {fileID: 11500000, guid: c1574844e380142bb9f5e4a8003b85a1, type: 3}
  m_Name: Link_7
  m_EditorClassIdentifier: 
  id: 7
  input: {fileID: 11418118}
  output: {fileID: 11407550}
  graph: {fileID: 11400000}
--- !u!114 &11406440
MonoBehaviour:
  m_ObjectHideFlags: 1
  m_PrefabParentObject: {fileID: 0}
  m_PrefabInternal: {fileID: 0}
  m_GameObject: {fileID: 0}
  m_Enabled: 1
  m_EditorHideFlags: 0
  m_Script: {fileID: 11500000, guid: 15a4af758c5024ee3ad022895232667f, type: 3}
  m_Name: MarkerEmitterNode_0a162cce-9b26-479b-a3eb-074781b040d6_InputPin
  m_EditorClassIdentifier: 
  pinType: 0
  node: {fileID: 11420236}
  position: {x: 60, y: -2}
  boundsOffset:
    serializedVersion: 2
    x: -40
    y: 0
    width: 80
    height: 15
  tangent: {x: 0, y: -1}
  tangentStrength: 50
--- !u!114 &11407550
MonoBehaviour:
  m_ObjectHideFlags: 1
  m_PrefabParentObject: {fileID: 0}
  m_PrefabInternal: {fileID: 0}
  m_GameObject: {fileID: 0}
  m_Enabled: 1
  m_EditorHideFlags: 0
  m_Script: {fileID: 11500000, guid: 15a4af758c5024ee3ad022895232667f, type: 3}
  m_Name: MarkerNode_10d6d7a3-6713-4628-a349-927ffe8f7447_OutputPin
  m_EditorClassIdentifier: 
  pinType: 1
  node: {fileID: 11462562}
  position: {x: 60, y: 48}
  boundsOffset:
    serializedVersion: 2
    x: -40
    y: -15
    width: 80
    height: 15
  tangent: {x: 0, y: 1}
  tangentStrength: 50
--- !u!114 &11409654
MonoBehaviour:
  m_ObjectHideFlags: 1
  m_PrefabParentObject: {fileID: 0}
  m_PrefabInternal: {fileID: 0}
  m_GameObject: {fileID: 0}
  m_Enabled: 1
  m_EditorHideFlags: 0
  m_Script: {fileID: 11500000, guid: 15a4af758c5024ee3ad022895232667f, type: 3}
  m_Name: _OutputPin
  m_EditorClassIdentifier: 
  pinType: 1
  node: {fileID: 11478338}
  position: {x: 60, y: 120}
  boundsOffset:
    serializedVersion: 2
    x: -40
    y: -15
    width: 80
    height: 15
  tangent: {x: 0, y: 1}
  tangentStrength: 50
--- !u!114 &11410838
MonoBehaviour:
  m_ObjectHideFlags: 1
  m_PrefabParentObject: {fileID: 0}
  m_PrefabInternal: {fileID: 0}
  m_GameObject: {fileID: 0}
  m_Enabled: 1
  m_EditorHideFlags: 0
  m_Script: {fileID: 11500000, guid: dfc1d246dd77b46a4aee970ab911ea63, type: 3}
  m_Name: MeshNode_2afdb182-7b31-467d-a6f9-b46a892be6e4
  m_EditorClassIdentifier: 
  id: 2afdb182-7b31-467d-a6f9-b46a892be6e4
  caption: Game Object Node
  bounds:
    serializedVersion: 2
    x: -782
    y: 65
    width: 120
    height: 120
  selected: 0
  zIndex: 384
  inputPins:
  - {fileID: 11471036}
  outputPins:
  - {fileID: 11401574}
  graph: {fileID: 11400000}
  offset:
    e00: 1
    e01: 0
    e02: 0
    e03: 0
    e10: 0
    e11: 2
    e12: 0
    e13: 0
    e20: 0
    e21: 0
    e22: 1
    e23: 0
    e30: 0
    e31: 0
    e32: 0
    e33: 1
  consumeOnAttach: 1
  attachmentProbability: 0.5
  IsStatic: 1
  affectsNavigation: 0
  selectionRuleEnabled: 0
  selectionRuleClassName: 
  transformRuleEnabled: 0
  transformRuleClassName: 
  useSpatialConstraint: 0
  spatialConstraint: {fileID: 0}
  Template: {fileID: 195510, guid: ee5920b14a854aa44b60a740a8285cdc, type: 2}
--- !u!114 &11411032
MonoBehaviour:
  m_ObjectHideFlags: 1
  m_PrefabParentObject: {fileID: 0}
  m_PrefabInternal: {fileID: 0}
  m_GameObject: {fileID: 0}
  m_Enabled: 1
  m_EditorHideFlags: 0
  m_Script: {fileID: 11500000, guid: 15a4af758c5024ee3ad022895232667f, type: 3}
  m_Name: MarkerNode_db7c61d0-6c22-4fa5-9107-269f7862c6cc_OutputPin
  m_EditorClassIdentifier: 
  pinType: 1
  node: {fileID: 11417306}
  position: {x: 60, y: 48}
  boundsOffset:
    serializedVersion: 2
    x: -40
    y: -15
    width: 80
    height: 15
  tangent: {x: 0, y: 1}
  tangentStrength: 50
--- !u!114 &11413706
MonoBehaviour:
  m_ObjectHideFlags: 1
  m_PrefabParentObject: {fileID: 0}
  m_PrefabInternal: {fileID: 0}
  m_GameObject: {fileID: 0}
  m_Enabled: 1
  m_EditorHideFlags: 0
  m_Script: {fileID: 11500000, guid: d17186de4454d4c4c86339f0276cb761, type: 3}
  m_Name: MarkerEmitterNode_1801c23a-320d-4f5b-9eb7-a5ea6edff663
  m_EditorClassIdentifier: 
  id: 1801c23a-320d-4f5b-9eb7-a5ea6edff663
  caption: MarkerEmitter
  bounds:
    serializedVersion: 2
    x: 235.36365
    y: 480.9091
    width: 120
    height: 50
  selected: 0
  zIndex: 203
  inputPins:
  - {fileID: 11414404}
  outputPins: []
  graph: {fileID: 11400000}
  offset:
    e00: 1
    e01: 0
    e02: 0
    e03: 0
    e10: 0
    e11: 1
    e12: 0
    e13: 0
    e20: 0
    e21: 0
    e22: 1
    e23: 0
    e30: 0
    e31: 0
    e32: 0
    e33: 1
  consumeOnAttach: 1
  attachmentProbability: 1
  marker: {fileID: 11438914}
--- !u!114 &11414310
MonoBehaviour:
  m_ObjectHideFlags: 1
  m_PrefabParentObject: {fileID: 0}
  m_PrefabInternal: {fileID: 0}
  m_GameObject: {fileID: 0}
  m_Enabled: 1
  m_EditorHideFlags: 0
  m_Script: {fileID: 11500000, guid: 4f86a247f92be461b8448085107abfca, type: 3}
  m_Name: MarkerNode_73127898-2367-4672-8013-eabef9a816ca
  m_EditorClassIdentifier: 
  id: 73127898-2367-4672-8013-eabef9a816ca
  caption: Road
  bounds:
    serializedVersion: 2
    x: -421
    y: 239
    width: 120
    height: 50
  selected: 0
  zIndex: 218
  inputPins: []
  outputPins:
  - {fileID: 11488062}
  graph: {fileID: 11400000}
--- !u!114 &11414404
MonoBehaviour:
  m_ObjectHideFlags: 1
  m_PrefabParentObject: {fileID: 0}
  m_PrefabInternal: {fileID: 0}
  m_GameObject: {fileID: 0}
  m_Enabled: 1
  m_EditorHideFlags: 0
  m_Script: {fileID: 11500000, guid: 15a4af758c5024ee3ad022895232667f, type: 3}
  m_Name: MarkerEmitterNode_1801c23a-320d-4f5b-9eb7-a5ea6edff663_InputPin
  m_EditorClassIdentifier: 
  pinType: 0
  node: {fileID: 11413706}
  position: {x: 60, y: -2}
  boundsOffset:
    serializedVersion: 2
    x: -40
    y: 0
    width: 80
    height: 15
  tangent: {x: 0, y: -1}
  tangentStrength: 50
--- !u!114 &11414556
MonoBehaviour:
  m_ObjectHideFlags: 1
  m_PrefabParentObject: {fileID: 0}
  m_PrefabInternal: {fileID: 0}
  m_GameObject: {fileID: 0}
  m_Enabled: 1
  m_EditorHideFlags: 0
  m_Script: {fileID: 11500000, guid: c1574844e380142bb9f5e4a8003b85a1, type: 3}
  m_Name: Link_11
  m_EditorClassIdentifier: 
  id: 11
  input: {fileID: 11426760}
  output: {fileID: 11418380}
  graph: {fileID: 11400000}
--- !u!114 &11415164
MonoBehaviour:
  m_ObjectHideFlags: 1
  m_PrefabParentObject: {fileID: 0}
  m_PrefabInternal: {fileID: 0}
  m_GameObject: {fileID: 0}
  m_Enabled: 1
  m_EditorHideFlags: 0
  m_Script: {fileID: 11500000, guid: 15a4af758c5024ee3ad022895232667f, type: 3}
  m_Name: MarkerNode_d0939546-6a21-4333-9074-296f6c9f8d3f_OutputPin
  m_EditorClassIdentifier: 
  pinType: 1
  node: {fileID: 11435212}
  position: {x: 60, y: 48}
  boundsOffset:
    serializedVersion: 2
    x: -40
    y: -15
    width: 80
    height: 15
  tangent: {x: 0, y: 1}
  tangentStrength: 50
--- !u!114 &11415322
MonoBehaviour:
  m_ObjectHideFlags: 1
  m_PrefabParentObject: {fileID: 0}
  m_PrefabInternal: {fileID: 0}
  m_GameObject: {fileID: 0}
  m_Enabled: 1
  m_EditorHideFlags: 0
  m_Script: {fileID: 11500000, guid: 15a4af758c5024ee3ad022895232667f, type: 3}
  m_Name: MarkerNode_9ef6990f-5195-4e1c-8633-902f4898278a_OutputPin
  m_EditorClassIdentifier: 
  pinType: 1
  node: {fileID: 11477570}
  position: {x: 60, y: 48}
  boundsOffset:
    serializedVersion: 2
    x: -40
    y: -15
    width: 80
    height: 15
  tangent: {x: 0, y: 1}
  tangentStrength: 50
--- !u!114 &11416624
MonoBehaviour:
  m_ObjectHideFlags: 1
  m_PrefabParentObject: {fileID: 0}
  m_PrefabInternal: {fileID: 0}
  m_GameObject: {fileID: 0}
  m_Enabled: 1
  m_EditorHideFlags: 0
  m_Script: {fileID: 11500000, guid: d17186de4454d4c4c86339f0276cb761, type: 3}
  m_Name: MarkerEmitterNode_6f8785ff-008f-47dc-b3a7-c8d69ad27733
  m_EditorClassIdentifier: 
  id: 6f8785ff-008f-47dc-b3a7-c8d69ad27733
  caption: MarkerEmitter
  bounds:
    serializedVersion: 2
    x: 229.36365
    y: 547.90906
    width: 120
    height: 50
  selected: 0
  zIndex: 211
  inputPins:
  - {fileID: 11463800}
  outputPins: []
  graph: {fileID: 11400000}
  offset:
    e00: 0.000000059604645
    e01: 0
    e02: 0.99999994
    e03: 0
    e10: 0
    e11: 1
    e12: 0
    e13: 0
    e20: -0.99999994
    e21: 0
    e22: 0.000000059604645
    e23: 0
    e30: 0
    e31: 0
    e32: 0
    e33: 1
  consumeOnAttach: 1
  attachmentProbability: 1
  marker: {fileID: 11438914}
--- !u!114 &11417306
MonoBehaviour:
  m_ObjectHideFlags: 1
  m_PrefabParentObject: {fileID: 0}
  m_PrefabInternal: {fileID: 0}
  m_GameObject: {fileID: 0}
  m_Enabled: 1
  m_EditorHideFlags: 0
  m_Script: {fileID: 11500000, guid: 4f86a247f92be461b8448085107abfca, type: 3}
  m_Name: MarkerNode_db7c61d0-6c22-4fa5-9107-269f7862c6cc
  m_EditorClassIdentifier: 
  id: db7c61d0-6c22-4fa5-9107-269f7862c6cc
  caption: Road_T
  bounds:
    serializedVersion: 2
    x: 45
    y: 245
    width: 120
    height: 50
  selected: 0
  zIndex: 417
  inputPins: []
  outputPins:
  - {fileID: 11411032}
  graph: {fileID: 11400000}
--- !u!114 &11418118
MonoBehaviour:
  m_ObjectHideFlags: 1
  m_PrefabParentObject: {fileID: 0}
  m_PrefabInternal: {fileID: 0}
  m_GameObject: {fileID: 0}
  m_Enabled: 1
  m_EditorHideFlags: 0
  m_Script: {fileID: 11500000, guid: 15a4af758c5024ee3ad022895232667f, type: 3}
  m_Name: _InputPin
  m_EditorClassIdentifier: 
  pinType: 0
  node: {fileID: 11478338}
  position: {x: 60, y: 0}
  boundsOffset:
    serializedVersion: 2
    x: -40
    y: 0
    width: 80
    height: 15
  tangent: {x: 0, y: -1}
  tangentStrength: 50
--- !u!114 &11418380
MonoBehaviour:
  m_ObjectHideFlags: 1
  m_PrefabParentObject: {fileID: 0}
  m_PrefabInternal: {fileID: 0}
  m_GameObject: {fileID: 0}
  m_Enabled: 1
  m_EditorHideFlags: 0
  m_Script: {fileID: 11500000, guid: 15a4af758c5024ee3ad022895232667f, type: 3}
  m_Name: MarkerNode_a7e05c3e-9813-411a-9152-3a5c714a8d96_OutputPin
  m_EditorClassIdentifier: 
  pinType: 1
  node: {fileID: 11424086}
  position: {x: 60, y: 48}
  boundsOffset:
    serializedVersion: 2
    x: -40
    y: -15
    width: 80
    height: 15
  tangent: {x: 0, y: 1}
  tangentStrength: 50
--- !u!114 &11418612
MonoBehaviour:
  m_ObjectHideFlags: 1
  m_PrefabParentObject: {fileID: 0}
  m_PrefabInternal: {fileID: 0}
  m_GameObject: {fileID: 0}
  m_Enabled: 1
  m_EditorHideFlags: 0
  m_Script: {fileID: 11500000, guid: c1574844e380142bb9f5e4a8003b85a1, type: 3}
  m_Name: Link_2
  m_EditorClassIdentifier: 
  id: 2
  input: {fileID: 11483786}
  output: {fileID: 11488062}
  graph: {fileID: 11400000}
--- !u!114 &11420112
MonoBehaviour:
  m_ObjectHideFlags: 1
  m_PrefabParentObject: {fileID: 0}
  m_PrefabInternal: {fileID: 0}
  m_GameObject: {fileID: 0}
  m_Enabled: 1
  m_EditorHideFlags: 0
  m_Script: {fileID: 11500000, guid: c1574844e380142bb9f5e4a8003b85a1, type: 3}
  m_Name: Link_9
  m_EditorClassIdentifier: 
  id: 9
  input: {fileID: 11490716}
  output: {fileID: 11411032}
  graph: {fileID: 11400000}
--- !u!114 &11420236
MonoBehaviour:
  m_ObjectHideFlags: 1
  m_PrefabParentObject: {fileID: 0}
  m_PrefabInternal: {fileID: 0}
  m_GameObject: {fileID: 0}
  m_Enabled: 1
  m_EditorHideFlags: 0
  m_Script: {fileID: 11500000, guid: d17186de4454d4c4c86339f0276cb761, type: 3}
  m_Name: MarkerEmitterNode_0a162cce-9b26-479b-a3eb-074781b040d6
  m_EditorClassIdentifier: 
  id: 0a162cce-9b26-479b-a3eb-074781b040d6
  caption: MarkerEmitter
  bounds:
    serializedVersion: 2
    x: 380.36365
    y: 474.9091
    width: 120
    height: 50
  selected: 0
  zIndex: 215
  inputPins:
  - {fileID: 11406440}
  outputPins: []
  graph: {fileID: 11400000}
  offset:
    e00: 0.000000059604645
    e01: 0
    e02: -0.99999994
    e03: 0
    e10: 0
    e11: 1
    e12: 0
    e13: 0
    e20: 0.99999994
    e21: 0
    e22: 0.000000059604645
    e23: 0
    e30: 0
    e31: 0
    e32: 0
    e33: 1
  consumeOnAttach: 1
  attachmentProbability: 1
  marker: {fileID: 11438914}
--- !u!114 &11423086
MonoBehaviour:
  m_ObjectHideFlags: 1
  m_PrefabParentObject: {fileID: 0}
  m_PrefabInternal: {fileID: 0}
  m_GameObject: {fileID: 0}
  m_Enabled: 1
  m_EditorHideFlags: 0
  m_Script: {fileID: 11500000, guid: 15a4af758c5024ee3ad022895232667f, type: 3}
  m_Name: _OutputPin
  m_EditorClassIdentifier: 
  pinType: 1
  node: {fileID: 11478724}
  position: {x: 60, y: 120}
  boundsOffset:
    serializedVersion: 2
    x: -40
    y: -15
    width: 80
    height: 15
  tangent: {x: 0, y: 1}
  tangentStrength: 50
--- !u!114 &11424086
MonoBehaviour:
  m_ObjectHideFlags: 1
  m_PrefabParentObject: {fileID: 0}
  m_PrefabInternal: {fileID: 0}
  m_GameObject: {fileID: 0}
  m_Enabled: 1
  m_EditorHideFlags: 0
  m_Script: {fileID: 11500000, guid: 4f86a247f92be461b8448085107abfca, type: 3}
  m_Name: MarkerNode_a7e05c3e-9813-411a-9152-3a5c714a8d96
  m_EditorClassIdentifier: 
  id: a7e05c3e-9813-411a-9152-3a5c714a8d96
  caption: Road_S
  bounds:
    serializedVersion: 2
    x: -283.63635
    y: 238.90909
    width: 120
    height: 50
  selected: 0
  zIndex: 216
  inputPins: []
  outputPins:
  - {fileID: 11418380}
  graph: {fileID: 11400000}
--- !u!114 &11424190
MonoBehaviour:
  m_ObjectHideFlags: 1
  m_PrefabParentObject: {fileID: 0}
  m_PrefabInternal: {fileID: 0}
  m_GameObject: {fileID: 0}
  m_Enabled: 1
  m_EditorHideFlags: 0
  m_Script: {fileID: 11500000, guid: c1574844e380142bb9f5e4a8003b85a1, type: 3}
  m_Name: Link_19
  m_EditorClassIdentifier: 
  id: 19
  input: {fileID: 11493258}
  output: {fileID: 11475824}
  graph: {fileID: 11400000}
--- !u!114 &11424354
MonoBehaviour:
  m_ObjectHideFlags: 1
  m_PrefabParentObject: {fileID: 0}
  m_PrefabInternal: {fileID: 0}
  m_GameObject: {fileID: 0}
  m_Enabled: 1
  m_EditorHideFlags: 0
  m_Script: {fileID: 11500000, guid: dfc1d246dd77b46a4aee970ab911ea63, type: 3}
  m_Name: MeshNode_7ca3ba4b-5c85-4c2b-bd2a-aca9678afb53
  m_EditorClassIdentifier: 
  id: 7ca3ba4b-5c85-4c2b-bd2a-aca9678afb53
  caption: Game Object Node
  bounds:
    serializedVersion: 2
    x: 311.36365
    y: 70.90909
    width: 120
    height: 120
  selected: 0
  zIndex: 413
  inputPins:
  - {fileID: 11477348}
  outputPins:
  - {fileID: 11487386}
  graph: {fileID: 11400000}
  offset:
    e00: 1
    e01: 0
    e02: 0
    e03: 0
    e10: 0
    e11: 1
    e12: 0
    e13: 0
    e20: 0
    e21: 0
    e22: 1
    e23: 0
    e30: 0
    e31: 0
    e32: 0
    e33: 1
  consumeOnAttach: 1
  attachmentProbability: 1
  IsStatic: 1
  affectsNavigation: 0
  selectionRuleEnabled: 0
  selectionRuleClassName: 
  transformRuleEnabled: 0
  transformRuleClassName: 
  useSpatialConstraint: 0
  spatialConstraint: {fileID: 0}
  Template: {fileID: 138936, guid: 8130c19676843b84e9d6618ad554298b, type: 2}
--- !u!114 &11426478
MonoBehaviour:
  m_ObjectHideFlags: 1
  m_PrefabParentObject: {fileID: 0}
  m_PrefabInternal: {fileID: 0}
  m_GameObject: {fileID: 0}
  m_Enabled: 1
  m_EditorHideFlags: 0
  m_Script: {fileID: 11500000, guid: 15a4af758c5024ee3ad022895232667f, type: 3}
  m_Name: _InputPin
  m_EditorClassIdentifier: 
  pinType: 0
  node: {fileID: 11481488}
  position: {x: 60, y: 0}
  boundsOffset:
    serializedVersion: 2
    x: -40
    y: 0
    width: 80
    height: 15
  tangent: {x: 0, y: -1}
  tangentStrength: 50
--- !u!114 &11426760
MonoBehaviour:
  m_ObjectHideFlags: 1
  m_PrefabParentObject: {fileID: 0}
  m_PrefabInternal: {fileID: 0}
  m_GameObject: {fileID: 0}
  m_Enabled: 1
  m_EditorHideFlags: 0
  m_Script: {fileID: 11500000, guid: 15a4af758c5024ee3ad022895232667f, type: 3}
  m_Name: _InputPin
  m_EditorClassIdentifier: 
  pinType: 0
  node: {fileID: 11401608}
  position: {x: 60, y: 0}
  boundsOffset:
    serializedVersion: 2
    x: -40
    y: 0
    width: 80
    height: 15
  tangent: {x: 0, y: -1}
  tangentStrength: 50
--- !u!114 &11431238
MonoBehaviour:
  m_ObjectHideFlags: 1
  m_PrefabParentObject: {fileID: 0}
  m_PrefabInternal: {fileID: 0}
  m_GameObject: {fileID: 0}
  m_Enabled: 1
  m_EditorHideFlags: 0
  m_Script: {fileID: 11500000, guid: d17186de4454d4c4c86339f0276cb761, type: 3}
  m_Name: MarkerEmitterNode_eb384f14-177b-4382-93c1-d675dd486312
  m_EditorClassIdentifier: 
  id: eb384f14-177b-4382-93c1-d675dd486312
  caption: MarkerEmitter
  bounds:
    serializedVersion: 2
    x: 101.36365
    y: 485.9091
    width: 120
    height: 50
  selected: 0
  zIndex: 193
  inputPins:
  - {fileID: 11461648}
  outputPins: []
  graph: {fileID: 11400000}
  offset:
    e00: 0.000000059604645
    e01: 0
    e02: 0.99999994
    e03: 0
    e10: 0
    e11: 1
    e12: 0
    e13: 0
    e20: -0.99999994
    e21: 0
    e22: 0.000000059604645
    e23: 0
    e30: 0
    e31: 0
    e32: 0
    e33: 1
  consumeOnAttach: 1
  attachmentProbability: 1
  marker: {fileID: 11438914}
--- !u!114 &11433168
MonoBehaviour:
  m_ObjectHideFlags: 1
  m_PrefabParentObject: {fileID: 0}
  m_PrefabInternal: {fileID: 0}
  m_GameObject: {fileID: 0}
  m_Enabled: 1
  m_EditorHideFlags: 0
  m_Script: {fileID: 11500000, guid: d17186de4454d4c4c86339f0276cb761, type: 3}
  m_Name: MarkerEmitterNode_937bf594-4d71-497c-b24c-8c5eff9fec08
  m_EditorClassIdentifier: 
  id: 937bf594-4d71-497c-b24c-8c5eff9fec08
  caption: MarkerEmitter
  bounds:
    serializedVersion: 2
    x: 362.36365
    y: 544.90906
    width: 120
    height: 50
  selected: 0
  zIndex: 212
  inputPins:
  - {fileID: 11493258}
  outputPins: []
  graph: {fileID: 11400000}
  offset:
    e00: -1
    e01: 0
    e02: -0.00000008742278
    e03: 0
    e10: 0
    e11: 1
    e12: 0
    e13: 0
    e20: 0.00000008742278
    e21: 0
    e22: -1
    e23: 0
    e30: 0
    e31: 0
    e32: 0
    e33: 1
  consumeOnAttach: 1
  attachmentProbability: 1
  marker: {fileID: 11438914}
--- !u!114 &11433684
MonoBehaviour:
  m_ObjectHideFlags: 1
  m_PrefabParentObject: {fileID: 0}
  m_PrefabInternal: {fileID: 0}
  m_GameObject: {fileID: 0}
  m_Enabled: 1
  m_EditorHideFlags: 0
  m_Script: {fileID: 11500000, guid: c1574844e380142bb9f5e4a8003b85a1, type: 3}
  m_Name: Link_20
  m_EditorClassIdentifier: 
  id: 20
  input: {fileID: 11406440}
  output: {fileID: 11475824}
  graph: {fileID: 11400000}
--- !u!114 &11433762
MonoBehaviour:
  m_ObjectHideFlags: 1
  m_PrefabParentObject: {fileID: 0}
  m_PrefabInternal: {fileID: 0}
  m_GameObject: {fileID: 0}
  m_Enabled: 1
  m_EditorHideFlags: 0
  m_Script: {fileID: 11500000, guid: 15a4af758c5024ee3ad022895232667f, type: 3}
  m_Name: _InputPin
  m_EditorClassIdentifier: 
  pinType: 0
  node: {fileID: 11452804}
  position: {x: 60, y: 0}
  boundsOffset:
    serializedVersion: 2
    x: -40
    y: 0
    width: 80
    height: 15
  tangent: {x: 0, y: -1}
  tangentStrength: 50
--- !u!114 &11435212
MonoBehaviour:
  m_ObjectHideFlags: 1
  m_PrefabParentObject: {fileID: 0}
  m_PrefabInternal: {fileID: 0}
  m_GameObject: {fileID: 0}
  m_Enabled: 1
  m_EditorHideFlags: 0
  m_Script: {fileID: 11500000, guid: 4f86a247f92be461b8448085107abfca, type: 3}
  m_Name: MarkerNode_d0939546-6a21-4333-9074-296f6c9f8d3f
  m_EditorClassIdentifier: 
  id: d0939546-6a21-4333-9074-296f6c9f8d3f
  caption: House
  bounds:
    serializedVersion: 2
    x: 98
    y: -38
    width: 120
    height: 50
  selected: 0
  zIndex: 391
  inputPins: []
  outputPins:
  - {fileID: 11415164}
  graph: {fileID: 11400000}
--- !u!114 &11436772
MonoBehaviour:
  m_ObjectHideFlags: 1
  m_PrefabParentObject: {fileID: 0}
  m_PrefabInternal: {fileID: 0}
  m_GameObject: {fileID: 0}
  m_Enabled: 1
  m_EditorHideFlags: 0
  m_Script: {fileID: 11500000, guid: 15a4af758c5024ee3ad022895232667f, type: 3}
  m_Name: MarkerEmitterNode_857e3bac-873e-4c38-8465-d265f6338020_InputPin
  m_EditorClassIdentifier: 
  pinType: 0
  node: {fileID: 11471072}
  position: {x: 60, y: -2}
  boundsOffset:
    serializedVersion: 2
    x: -40
    y: 0
    width: 80
    height: 15
  tangent: {x: 0, y: -1}
  tangentStrength: 50
--- !u!114 &11438536
MonoBehaviour:
  m_ObjectHideFlags: 1
  m_PrefabParentObject: {fileID: 0}
  m_PrefabInternal: {fileID: 0}
  m_GameObject: {fileID: 0}
  m_Enabled: 1
  m_EditorHideFlags: 0
  m_Script: {fileID: 11500000, guid: c1574844e380142bb9f5e4a8003b85a1, type: 3}
  m_Name: Link_18
  m_EditorClassIdentifier: 
  id: 18
  input: {fileID: 11463800}
  output: {fileID: 11475824}
  graph: {fileID: 11400000}
--- !u!114 &11438840
MonoBehaviour:
  m_ObjectHideFlags: 1
  m_PrefabParentObject: {fileID: 0}
  m_PrefabInternal: {fileID: 0}
  m_GameObject: {fileID: 0}
  m_Enabled: 1
  m_EditorHideFlags: 0
  m_Script: {fileID: 11500000, guid: dfc1d246dd77b46a4aee970ab911ea63, type: 3}
  m_Name: MeshNode_7e219ed9-9b2b-4d85-9c08-0eb75d02bb89
  m_EditorClassIdentifier: 
  id: 7e219ed9-9b2b-4d85-9c08-0eb75d02bb89
  caption: Game Object Node
  bounds:
    serializedVersion: 2
    x: -421
    y: 318
    width: 120
    height: 120
  selected: 0
  zIndex: 223
  inputPins:
  - {fileID: 11483786}
  outputPins:
  - {fileID: 11445634}
  graph: {fileID: 11400000}
  offset:
    e00: 1
    e01: 0
    e02: 0
    e03: 0
    e10: 0
    e11: 1
    e12: 0
    e13: 0
    e20: 0
    e21: 0
    e22: 1
    e23: 0
    e30: 0
    e31: 0
    e32: 0
    e33: 1
  consumeOnAttach: 1
  attachmentProbability: 1
  IsStatic: 1
  affectsNavigation: 0
  selectionRuleEnabled: 0
  selectionRuleClassName: 
  transformRuleEnabled: 0
  transformRuleClassName: 
  useSpatialConstraint: 0
  spatialConstraint: {fileID: 0}
  Template: {fileID: 195510, guid: cf4159396e3945242a1cf4f2e6a43049, type: 2}
--- !u!114 &11438914
MonoBehaviour:
  m_ObjectHideFlags: 1
  m_PrefabParentObject: {fileID: 0}
  m_PrefabInternal: {fileID: 0}
  m_GameObject: {fileID: 0}
  m_Enabled: 1
  m_EditorHideFlags: 0
  m_Script: {fileID: 11500000, guid: 4f86a247f92be461b8448085107abfca, type: 3}
  m_Name: MarkerNode_c6eb19b3-8ef3-4278-a00e-ec177118e3d6
  m_EditorClassIdentifier: 
  id: c6eb19b3-8ef3-4278-a00e-ec177118e3d6
  caption: SignalPost
  bounds:
    serializedVersion: 2
    x: 311.36365
    y: -12.090912
    width: 120
    height: 50
  selected: 0
  zIndex: 197
  inputPins: []
  outputPins:
  - {fileID: 11475696}
  graph: {fileID: 11400000}
--- !u!114 &11441346
MonoBehaviour:
  m_ObjectHideFlags: 1
  m_PrefabParentObject: {fileID: 0}
  m_PrefabInternal: {fileID: 0}
  m_GameObject: {fileID: 0}
  m_Enabled: 1
  m_EditorHideFlags: 0
  m_Script: {fileID: 11500000, guid: 15a4af758c5024ee3ad022895232667f, type: 3}
  m_Name: MarkerEmitterNode_2f514178-5868-411e-bcba-7559b44dcb6b_InputPin
  m_EditorClassIdentifier: 
  pinType: 0
  node: {fileID: 11458508}
  position: {x: 60, y: -2}
  boundsOffset:
    serializedVersion: 2
    x: -40
    y: 0
    width: 80
    height: 15
  tangent: {x: 0, y: -1}
  tangentStrength: 50
--- !u!114 &11445382
MonoBehaviour:
  m_ObjectHideFlags: 1
  m_PrefabParentObject: {fileID: 0}
  m_PrefabInternal: {fileID: 0}
  m_GameObject: {fileID: 0}
  m_Enabled: 1
  m_EditorHideFlags: 0
  m_Script: {fileID: 11500000, guid: 15a4af758c5024ee3ad022895232667f, type: 3}
  m_Name: _OutputPin
  m_EditorClassIdentifier: 
  pinType: 1
  node: {fileID: 11452804}
  position: {x: 60, y: 120}
  boundsOffset:
    serializedVersion: 2
    x: -40
    y: -15
    width: 80
    height: 15
  tangent: {x: 0, y: 1}
  tangentStrength: 50
--- !u!114 &11445634
MonoBehaviour:
  m_ObjectHideFlags: 1
  m_PrefabParentObject: {fileID: 0}
  m_PrefabInternal: {fileID: 0}
  m_GameObject: {fileID: 0}
  m_Enabled: 1
  m_EditorHideFlags: 0
  m_Script: {fileID: 11500000, guid: 15a4af758c5024ee3ad022895232667f, type: 3}
  m_Name: _OutputPin
  m_EditorClassIdentifier: 
  pinType: 1
  node: {fileID: 11438840}
  position: {x: 60, y: 120}
  boundsOffset:
    serializedVersion: 2
    x: -40
    y: -15
    width: 80
    height: 15
  tangent: {x: 0, y: 1}
  tangentStrength: 50
--- !u!114 &11448936
MonoBehaviour:
  m_ObjectHideFlags: 1
  m_PrefabParentObject: {fileID: 0}
  m_PrefabInternal: {fileID: 0}
  m_GameObject: {fileID: 0}
  m_Enabled: 1
  m_EditorHideFlags: 0
  m_Script: {fileID: 11500000, guid: 15a4af758c5024ee3ad022895232667f, type: 3}
  m_Name: _InputPin
  m_EditorClassIdentifier: 
  pinType: 0
  node: {fileID: 11454370}
  position: {x: 60, y: 0}
  boundsOffset:
    serializedVersion: 2
    x: -40
    y: 0
    width: 80
    height: 15
  tangent: {x: 0, y: -1}
  tangentStrength: 50
--- !u!114 &11450116
MonoBehaviour:
  m_ObjectHideFlags: 1
  m_PrefabParentObject: {fileID: 0}
  m_PrefabInternal: {fileID: 0}
  m_GameObject: {fileID: 0}
  m_Enabled: 1
  m_EditorHideFlags: 0
  m_Script: {fileID: 11500000, guid: 15a4af758c5024ee3ad022895232667f, type: 3}
  m_Name: _OutputPin
  m_EditorClassIdentifier: 
  pinType: 1
  node: {fileID: 11479418}
  position: {x: 60, y: 120}
  boundsOffset:
    serializedVersion: 2
    x: -40
    y: -15
    width: 80
    height: 15
  tangent: {x: 0, y: 1}
  tangentStrength: 50
--- !u!114 &11452804
MonoBehaviour:
  m_ObjectHideFlags: 1
  m_PrefabParentObject: {fileID: 0}
  m_PrefabInternal: {fileID: 0}
  m_GameObject: {fileID: 0}
  m_Enabled: 1
  m_EditorHideFlags: 0
  m_Script: {fileID: 11500000, guid: dfc1d246dd77b46a4aee970ab911ea63, type: 3}
  m_Name: MeshNode_1e9d0c7d-4d61-440b-8532-ee38fb5641a6
  m_EditorClassIdentifier: 
  id: 1e9d0c7d-4d61-440b-8532-ee38fb5641a6
  caption: Game Object Node
  bounds:
    serializedVersion: 2
    x: -1057
    y: 64
    width: 120
    height: 120
  selected: 0
  zIndex: 383
  inputPins:
  - {fileID: 11433762}
  outputPins:
  - {fileID: 11445382}
  graph: {fileID: 11400000}
  offset:
    e00: 1
    e01: 0
    e02: 0
    e03: 0
    e10: 0
    e11: 6
    e12: 0
    e13: 0
    e20: 0
    e21: 0
    e22: 1
    e23: 0
    e30: 0
    e31: 0
    e32: 0
    e33: 1
  consumeOnAttach: 1
  attachmentProbability: 0.6
  IsStatic: 1
  affectsNavigation: 0
  selectionRuleEnabled: 0
  selectionRuleClassName: 
  transformRuleEnabled: 0
  transformRuleClassName: 
  useSpatialConstraint: 0
  spatialConstraint: {fileID: 0}
  Template: {fileID: 195510, guid: 9e91fdbbaca9f284aa09ad8db228232d, type: 2}
--- !u!114 &11454370
MonoBehaviour:
  m_ObjectHideFlags: 1
  m_PrefabParentObject: {fileID: 0}
  m_PrefabInternal: {fileID: 0}
  m_GameObject: {fileID: 0}
  m_Enabled: 1
  m_EditorHideFlags: 0
  m_Script: {fileID: 11500000, guid: dfc1d246dd77b46a4aee970ab911ea63, type: 3}
  m_Name: MeshNode_51562a45-d613-440f-9b69-1decd28eda01
  m_EditorClassIdentifier: 
  id: 51562a45-d613-440f-9b69-1decd28eda01
  caption: Game Object Node
  bounds:
    serializedVersion: 2
    x: 299.36365
    y: 323.9091
    width: 120
    height: 120
  selected: 0
  zIndex: 412
  inputPins:
  - {fileID: 11448936}
  outputPins:
  - {fileID: 11475824}
  graph: {fileID: 11400000}
  offset:
    e00: 1
    e01: 0
    e02: 0
    e03: 0
    e10: 0
    e11: 1
    e12: 0
    e13: 0
    e20: 0
    e21: 0
    e22: 1
    e23: 0
    e30: 0
    e31: 0
    e32: 0
    e33: 1
  consumeOnAttach: 1
  attachmentProbability: 1
  IsStatic: 1
  affectsNavigation: 0
  selectionRuleEnabled: 0
  selectionRuleClassName: 
  transformRuleEnabled: 0
  transformRuleClassName: 
  useSpatialConstraint: 0
  spatialConstraint: {fileID: 0}
  Template: {fileID: 122608, guid: 1c31b521ce41f884faffe4f3e6736e53, type: 2}
--- !u!114 &11456570
MonoBehaviour:
  m_ObjectHideFlags: 1
  m_PrefabParentObject: {fileID: 0}
  m_PrefabInternal: {fileID: 0}
  m_GameObject: {fileID: 0}
  m_Enabled: 1
  m_EditorHideFlags: 0
  m_Script: {fileID: 11500000, guid: c1574844e380142bb9f5e4a8003b85a1, type: 3}
  m_Name: Link_16
  m_EditorClassIdentifier: 
  id: 16
  input: {fileID: 11461648}
  output: {fileID: 11423086}
  graph: {fileID: 11400000}
--- !u!114 &11458508
MonoBehaviour:
  m_ObjectHideFlags: 1
  m_PrefabParentObject: {fileID: 0}
  m_PrefabInternal: {fileID: 0}
  m_GameObject: {fileID: 0}
  m_Enabled: 1
  m_EditorHideFlags: 0
  m_Script: {fileID: 11500000, guid: d17186de4454d4c4c86339f0276cb761, type: 3}
  m_Name: MarkerEmitterNode_2f514178-5868-411e-bcba-7559b44dcb6b
  m_EditorClassIdentifier: 
  id: 2f514178-5868-411e-bcba-7559b44dcb6b
  caption: MarkerEmitter
  bounds:
    serializedVersion: 2
    x: -201.63635
    y: 475.9091
    width: 120
    height: 50
  selected: 0
  zIndex: 186
  inputPins:
  - {fileID: 11441346}
  outputPins: []
  graph: {fileID: 11400000}
  offset:
    e00: 1
    e01: 0
    e02: 0
    e03: 0
    e10: 0
    e11: 1
    e12: 0
    e13: 0
    e20: 0
    e21: 0
    e22: 1
    e23: 0
    e30: 0
    e31: 0
    e32: 0
    e33: 1
  consumeOnAttach: 1
  attachmentProbability: 1
  marker: {fileID: 11438914}
--- !u!114 &11461010
MonoBehaviour:
  m_ObjectHideFlags: 1
  m_PrefabParentObject: {fileID: 0}
  m_PrefabInternal: {fileID: 0}
  m_GameObject: {fileID: 0}
  m_Enabled: 1
  m_EditorHideFlags: 0
  m_Script: {fileID: 11500000, guid: dfc1d246dd77b46a4aee970ab911ea63, type: 3}
  m_Name: MeshNode_1849ca44-3888-459d-ace4-3d16f8496131
  m_EditorClassIdentifier: 
  id: 1849ca44-3888-459d-ace4-3d16f8496131
  caption: Game Object Node
  bounds:
    serializedVersion: 2
    x: -219
    y: 46
    width: 120
    height: 120
  selected: 0
  zIndex: 423
  inputPins:
  - {fileID: 11498236}
  outputPins:
  - {fileID: 11487944}
  graph: {fileID: 11400000}
  offset:
    e00: 1
    e01: 0
    e02: 0
    e03: 0
    e10: 0
    e11: 2
    e12: 0
    e13: 0
    e20: 0
    e21: 0
    e22: 1
    e23: 0
    e30: 0
    e31: 0
    e32: 0
    e33: 1
  consumeOnAttach: 1
  attachmentProbability: 0.5
  IsStatic: 1
  affectsNavigation: 0
  selectionRuleEnabled: 0
  selectionRuleClassName: 
  transformRuleEnabled: 0
  transformRuleClassName: 
  useSpatialConstraint: 0
  spatialConstraint: {fileID: 0}
  Template: {fileID: 195510, guid: ae1a21d4460a34f4db70517976c79116, type: 2}
--- !u!114 &11461648
MonoBehaviour:
  m_ObjectHideFlags: 1
  m_PrefabParentObject: {fileID: 0}
  m_PrefabInternal: {fileID: 0}
  m_GameObject: {fileID: 0}
  m_Enabled: 1
  m_EditorHideFlags: 0
  m_Script: {fileID: 11500000, guid: 15a4af758c5024ee3ad022895232667f, type: 3}
  m_Name: MarkerEmitterNode_eb384f14-177b-4382-93c1-d675dd486312_InputPin
  m_EditorClassIdentifier: 
  pinType: 0
  node: {fileID: 11431238}
  position: {x: 60, y: -2}
  boundsOffset:
    serializedVersion: 2
    x: -40
    y: 0
    width: 80
    height: 15
  tangent: {x: 0, y: -1}
  tangentStrength: 50
--- !u!114 &11462562
MonoBehaviour:
  m_ObjectHideFlags: 1
  m_PrefabParentObject: {fileID: 0}
  m_PrefabInternal: {fileID: 0}
  m_GameObject: {fileID: 0}
  m_Enabled: 1
  m_EditorHideFlags: 0
  m_Script: {fileID: 11500000, guid: 4f86a247f92be461b8448085107abfca, type: 3}
  m_Name: MarkerNode_10d6d7a3-6713-4628-a349-927ffe8f7447
  m_EditorClassIdentifier: 
  id: 10d6d7a3-6713-4628-a349-927ffe8f7447
  caption: Road_Corner
  bounds:
    serializedVersion: 2
    x: -128
    y: 246
    width: 120
    height: 50
  selected: 0
  zIndex: 416
  inputPins: []
  outputPins:
  - {fileID: 11407550}
  graph: {fileID: 11400000}
--- !u!114 &11463800
MonoBehaviour:
  m_ObjectHideFlags: 1
  m_PrefabParentObject: {fileID: 0}
  m_PrefabInternal: {fileID: 0}
  m_GameObject: {fileID: 0}
  m_Enabled: 1
  m_EditorHideFlags: 0
  m_Script: {fileID: 11500000, guid: 15a4af758c5024ee3ad022895232667f, type: 3}
  m_Name: MarkerEmitterNode_6f8785ff-008f-47dc-b3a7-c8d69ad27733_InputPin
  m_EditorClassIdentifier: 
  pinType: 0
  node: {fileID: 11416624}
  position: {x: 60, y: -2}
  boundsOffset:
    serializedVersion: 2
    x: -40
    y: 0
    width: 80
    height: 15
  tangent: {x: 0, y: -1}
  tangentStrength: 50
--- !u!114 &11463850
MonoBehaviour:
  m_ObjectHideFlags: 1
  m_PrefabParentObject: {fileID: 0}
  m_PrefabInternal: {fileID: 0}
  m_GameObject: {fileID: 0}
  m_Enabled: 1
  m_EditorHideFlags: 0
  m_Script: {fileID: 11500000, guid: c1574844e380142bb9f5e4a8003b85a1, type: 3}
  m_Name: Link_17
  m_EditorClassIdentifier: 
  id: 17
  input: {fileID: 11414404}
  output: {fileID: 11475824}
  graph: {fileID: 11400000}
--- !u!114 &11470180
MonoBehaviour:
  m_ObjectHideFlags: 1
  m_PrefabParentObject: {fileID: 0}
  m_PrefabInternal: {fileID: 0}
  m_GameObject: {fileID: 0}
  m_Enabled: 1
  m_EditorHideFlags: 0
  m_Script: {fileID: 11500000, guid: 15a4af758c5024ee3ad022895232667f, type: 3}
  m_Name: _OutputPin
  m_EditorClassIdentifier: 
  pinType: 1
  node: {fileID: 11481488}
  position: {x: 60, y: 120}
  boundsOffset:
    serializedVersion: 2
    x: -40
    y: -15
    width: 80
    height: 15
  tangent: {x: 0, y: 1}
  tangentStrength: 50
--- !u!114 &11471036
MonoBehaviour:
  m_ObjectHideFlags: 1
  m_PrefabParentObject: {fileID: 0}
  m_PrefabInternal: {fileID: 0}
  m_GameObject: {fileID: 0}
  m_Enabled: 1
  m_EditorHideFlags: 0
  m_Script: {fileID: 11500000, guid: 15a4af758c5024ee3ad022895232667f, type: 3}
  m_Name: _InputPin
  m_EditorClassIdentifier: 
  pinType: 0
  node: {fileID: 11410838}
  position: {x: 60, y: 0}
  boundsOffset:
    serializedVersion: 2
    x: -40
    y: 0
    width: 80
    height: 15
  tangent: {x: 0, y: -1}
  tangentStrength: 50
--- !u!114 &11471072
MonoBehaviour:
  m_ObjectHideFlags: 1
  m_PrefabParentObject: {fileID: 0}
  m_PrefabInternal: {fileID: 0}
  m_GameObject: {fileID: 0}
  m_Enabled: 1
  m_EditorHideFlags: 0
  m_Script: {fileID: 11500000, guid: d17186de4454d4c4c86339f0276cb761, type: 3}
  m_Name: MarkerEmitterNode_857e3bac-873e-4c38-8465-d265f6338020
  m_EditorClassIdentifier: 
  id: 857e3bac-873e-4c38-8465-d265f6338020
  caption: MarkerEmitter
  bounds:
    serializedVersion: 2
    x: -32.636353
    y: 483.9091
    width: 120
    height: 50
  selected: 0
  zIndex: 190
  inputPins:
  - {fileID: 11436772}
  outputPins: []
  graph: {fileID: 11400000}
  offset:
    e00: 1
    e01: 0
    e02: 0
    e03: 0
    e10: 0
    e11: 1
    e12: 0
    e13: 0
    e20: 0
    e21: 0
    e22: 1
    e23: 0
    e30: 0
    e31: 0
    e32: 0
    e33: 1
  consumeOnAttach: 1
  attachmentProbability: 1
  marker: {fileID: 11438914}
--- !u!114 &11473050
MonoBehaviour:
  m_ObjectHideFlags: 1
  m_PrefabParentObject: {fileID: 0}
  m_PrefabInternal: {fileID: 0}
  m_GameObject: {fileID: 0}
  m_Enabled: 1
  m_EditorHideFlags: 0
  m_Script: {fileID: 11500000, guid: 15a4af758c5024ee3ad022895232667f, type: 3}
  m_Name: _InputPin
  m_EditorClassIdentifier: 
  pinType: 0
  node: {fileID: 11479418}
  position: {x: 60, y: 0}
  boundsOffset:
    serializedVersion: 2
    x: -40
    y: 0
    width: 80
    height: 15
  tangent: {x: 0, y: -1}
  tangentStrength: 50
--- !u!114 &11475696
MonoBehaviour:
  m_ObjectHideFlags: 1
  m_PrefabParentObject: {fileID: 0}
  m_PrefabInternal: {fileID: 0}
  m_GameObject: {fileID: 0}
  m_Enabled: 1
  m_EditorHideFlags: 0
  m_Script: {fileID: 11500000, guid: 15a4af758c5024ee3ad022895232667f, type: 3}
  m_Name: MarkerNode_c6eb19b3-8ef3-4278-a00e-ec177118e3d6_OutputPin
  m_EditorClassIdentifier: 
  pinType: 1
  node: {fileID: 11438914}
  position: {x: 60, y: 48}
  boundsOffset:
    serializedVersion: 2
    x: -40
    y: -15
    width: 80
    height: 15
  tangent: {x: 0, y: 1}
  tangentStrength: 50
--- !u!114 &11475824
MonoBehaviour:
  m_ObjectHideFlags: 1
  m_PrefabParentObject: {fileID: 0}
  m_PrefabInternal: {fileID: 0}
  m_GameObject: {fileID: 0}
  m_Enabled: 1
  m_EditorHideFlags: 0
  m_Script: {fileID: 11500000, guid: 15a4af758c5024ee3ad022895232667f, type: 3}
  m_Name: _OutputPin
  m_EditorClassIdentifier: 
  pinType: 1
  node: {fileID: 11454370}
  position: {x: 60, y: 120}
  boundsOffset:
    serializedVersion: 2
    x: -40
    y: -15
    width: 80
    height: 15
  tangent: {x: 0, y: 1}
  tangentStrength: 50
--- !u!114 &11476336
MonoBehaviour:
  m_ObjectHideFlags: 1
  m_PrefabParentObject: {fileID: 0}
  m_PrefabInternal: {fileID: 0}
  m_GameObject: {fileID: 0}
  m_Enabled: 1
  m_EditorHideFlags: 0
  m_Script: {fileID: 11500000, guid: 15a4af758c5024ee3ad022895232667f, type: 3}
  m_Name: _OutputPin
  m_EditorClassIdentifier: 
  pinType: 1
  node: {fileID: 11401608}
  position: {x: 60, y: 120}
  boundsOffset:
    serializedVersion: 2
    x: -40
    y: -15
    width: 80
    height: 15
  tangent: {x: 0, y: 1}
  tangentStrength: 50
--- !u!114 &11477348
MonoBehaviour:
  m_ObjectHideFlags: 1
  m_PrefabParentObject: {fileID: 0}
  m_PrefabInternal: {fileID: 0}
  m_GameObject: {fileID: 0}
  m_Enabled: 1
  m_EditorHideFlags: 0
  m_Script: {fileID: 11500000, guid: 15a4af758c5024ee3ad022895232667f, type: 3}
  m_Name: _InputPin
  m_EditorClassIdentifier: 
  pinType: 0
  node: {fileID: 11424354}
  position: {x: 60, y: 0}
  boundsOffset:
    serializedVersion: 2
    x: -40
    y: 0
    width: 80
    height: 15
  tangent: {x: 0, y: -1}
  tangentStrength: 50
--- !u!114 &11477570
MonoBehaviour:
  m_ObjectHideFlags: 1
  m_PrefabParentObject: {fileID: 0}
  m_PrefabInternal: {fileID: 0}
  m_GameObject: {fileID: 0}
  m_Enabled: 1
  m_EditorHideFlags: 0
  m_Script: {fileID: 11500000, guid: 4f86a247f92be461b8448085107abfca, type: 3}
  m_Name: MarkerNode_9ef6990f-5195-4e1c-8633-902f4898278a
  m_EditorClassIdentifier: 
  id: 9ef6990f-5195-4e1c-8633-902f4898278a
  caption: Road_X
  bounds:
    serializedVersion: 2
    x: 298.36365
    y: 243.90909
    width: 120
    height: 50
  selected: 0
  zIndex: 411
  inputPins: []
  outputPins:
  - {fileID: 11415322}
  graph: {fileID: 11400000}
--- !u!114 &11478338
MonoBehaviour:
  m_ObjectHideFlags: 1
  m_PrefabParentObject: {fileID: 0}
  m_PrefabInternal: {fileID: 0}
  m_GameObject: {fileID: 0}
  m_Enabled: 1
  m_EditorHideFlags: 0
  m_Script: {fileID: 11500000, guid: dfc1d246dd77b46a4aee970ab911ea63, type: 3}
  m_Name: MeshNode_5914f7df-cc13-41ab-afb0-dde658110f84
  m_EditorClassIdentifier: 
  id: 5914f7df-cc13-41ab-afb0-dde658110f84
  caption: Game Object Node
  bounds:
    serializedVersion: 2
    x: -130
    y: 324
    width: 120
    height: 120
  selected: 0
  zIndex: 415
  inputPins:
  - {fileID: 11418118}
  outputPins:
  - {fileID: 11409654}
  graph: {fileID: 11400000}
  offset:
    e00: 1
    e01: 0
    e02: 0
    e03: 0
    e10: 0
    e11: 1
    e12: 0
    e13: 0
    e20: 0
    e21: 0
    e22: 1
    e23: 0
    e30: 0
    e31: 0
    e32: 0
    e33: 1
  consumeOnAttach: 1
  attachmentProbability: 1
  IsStatic: 1
  affectsNavigation: 0
  selectionRuleEnabled: 0
  selectionRuleClassName: 
  transformRuleEnabled: 0
  transformRuleClassName: 
  useSpatialConstraint: 0
  spatialConstraint: {fileID: 0}
  Template: {fileID: 195510, guid: 5e0b797815cf08143a390e9745b31e19, type: 2}
--- !u!114 &11478724
MonoBehaviour:
  m_ObjectHideFlags: 1
  m_PrefabParentObject: {fileID: 0}
  m_PrefabInternal: {fileID: 0}
  m_GameObject: {fileID: 0}
  m_Enabled: 1
  m_EditorHideFlags: 0
  m_Script: {fileID: 11500000, guid: dfc1d246dd77b46a4aee970ab911ea63, type: 3}
  m_Name: MeshNode_ee1c8b87-0c44-4f7c-8ba0-52cebd467e0f
  m_EditorClassIdentifier: 
  id: ee1c8b87-0c44-4f7c-8ba0-52cebd467e0f
  caption: Game Object Node
  bounds:
    serializedVersion: 2
    x: 44
    y: 324
    width: 120
    height: 120
  selected: 0
  zIndex: 414
  inputPins:
  - {fileID: 11490716}
  outputPins:
  - {fileID: 11423086}
  graph: {fileID: 11400000}
  offset:
    e00: 0.000000059604645
    e01: -0
    e02: -0.99999994
    e03: 0
    e10: 0
    e11: 1
    e12: -0
    e13: 0
    e20: 0.99999994
    e21: 0
    e22: 0.000000059604645
    e23: 0
    e30: 0
    e31: 0
    e32: 0
    e33: 1
  consumeOnAttach: 1
  attachmentProbability: 1
  IsStatic: 1
  affectsNavigation: 0
  selectionRuleEnabled: 0
  selectionRuleClassName: 
  transformRuleEnabled: 0
  transformRuleClassName: 
  useSpatialConstraint: 0
  spatialConstraint: {fileID: 0}
  Template: {fileID: 122608, guid: 803482090a6db604384fa4c87c6f7795, type: 2}
--- !u!114 &11479418
MonoBehaviour:
  m_ObjectHideFlags: 1
  m_PrefabParentObject: {fileID: 0}
  m_PrefabInternal: {fileID: 0}
  m_GameObject: {fileID: 0}
  m_Enabled: 1
  m_EditorHideFlags: 0
  m_Script: {fileID: 11500000, guid: dfc1d246dd77b46a4aee970ab911ea63, type: 3}
  m_Name: MeshNode_408d83dd-6429-4220-b37c-b836aade8834
  m_EditorClassIdentifier: 
  id: 408d83dd-6429-4220-b37c-b836aade8834
  caption: Game Object Node
  bounds:
    serializedVersion: 2
    x: -506
    y: 51
    width: 120
    height: 120
  selected: 0
  zIndex: 388
  inputPins:
  - {fileID: 11473050}
  outputPins:
  - {fileID: 11450116}
  graph: {fileID: 11400000}
  offset:
    e00: 1
    e01: 0
    e02: 0
    e03: 0
    e10: 0
    e11: 2
    e12: 0
    e13: 0
    e20: 0
    e21: 0
    e22: 1
    e23: 0
    e30: 0
    e31: 0
    e32: 0
    e33: 1
  consumeOnAttach: 1
  attachmentProbability: 0.5
  IsStatic: 1
  affectsNavigation: 0
  selectionRuleEnabled: 0
  selectionRuleClassName: 
  transformRuleEnabled: 0
  transformRuleClassName: 
  useSpatialConstraint: 0
  spatialConstraint: {fileID: 0}
  Template: {fileID: 195510, guid: b5bac985f5aac2a44bb913fd1076f084, type: 2}
--- !u!114 &11481488
MonoBehaviour:
  m_ObjectHideFlags: 1
  m_PrefabParentObject: {fileID: 0}
  m_PrefabInternal: {fileID: 0}
  m_GameObject: {fileID: 0}
  m_Enabled: 1
  m_EditorHideFlags: 0
  m_Script: {fileID: 11500000, guid: dfc1d246dd77b46a4aee970ab911ea63, type: 3}
  m_Name: MeshNode_b93ccda1-d266-4385-a26d-80e6998dc304
  m_EditorClassIdentifier: 
  id: b93ccda1-d266-4385-a26d-80e6998dc304
  caption: Game Object Node
  bounds:
    serializedVersion: 2
    x: 106
    y: 58
    width: 120
    height: 120
  selected: 0
  zIndex: 410
  inputPins:
  - {fileID: 11426478}
  outputPins:
  - {fileID: 11470180}
  graph: {fileID: 11400000}
  offset:
    e00: 1
    e01: 0
    e02: 0
    e03: 0
    e10: 0
    e11: 1
    e12: 0
    e13: 0
    e20: 0
    e21: 0
    e22: 1
    e23: 0
    e30: 0
    e31: 0
    e32: 0
    e33: 1
  consumeOnAttach: 1
  attachmentProbability: 1
  IsStatic: 1
  affectsNavigation: 0
  selectionRuleEnabled: 0
  selectionRuleClassName: 
  transformRuleEnabled: 0
  transformRuleClassName: 
  useSpatialConstraint: 0
  spatialConstraint: {fileID: 0}
  Template: {fileID: 195510, guid: 0e4dd87f231295a4182dfd5c5a5c85e3, type: 2}
--- !u!114 &11483786
MonoBehaviour:
  m_ObjectHideFlags: 1
  m_PrefabParentObject: {fileID: 0}
  m_PrefabInternal: {fileID: 0}
  m_GameObject: {fileID: 0}
  m_Enabled: 1
  m_EditorHideFlags: 0
  m_Script: {fileID: 11500000, guid: 15a4af758c5024ee3ad022895232667f, type: 3}
  m_Name: _InputPin
  m_EditorClassIdentifier: 
  pinType: 0
  node: {fileID: 11438840}
  position: {x: 60, y: 0}
  boundsOffset:
    serializedVersion: 2
    x: -40
    y: 0
    width: 80
    height: 15
  tangent: {x: 0, y: -1}
  tangentStrength: 50
--- !u!114 &11487386
MonoBehaviour:
  m_ObjectHideFlags: 1
  m_PrefabParentObject: {fileID: 0}
  m_PrefabInternal: {fileID: 0}
  m_GameObject: {fileID: 0}
  m_Enabled: 1
  m_EditorHideFlags: 0
  m_Script: {fileID: 11500000, guid: 15a4af758c5024ee3ad022895232667f, type: 3}
  m_Name: _OutputPin
  m_EditorClassIdentifier: 
  pinType: 1
  node: {fileID: 11424354}
  position: {x: 60, y: 120}
  boundsOffset:
    serializedVersion: 2
    x: -40
    y: -15
    width: 80
    height: 15
  tangent: {x: 0, y: 1}
  tangentStrength: 50
--- !u!114 &11487944
MonoBehaviour:
  m_ObjectHideFlags: 1
  m_PrefabParentObject: {fileID: 0}
  m_PrefabInternal: {fileID: 0}
  m_GameObject: {fileID: 0}
  m_Enabled: 1
  m_EditorHideFlags: 0
  m_Script: {fileID: 11500000, guid: 15a4af758c5024ee3ad022895232667f, type: 3}
  m_Name: _OutputPin
  m_EditorClassIdentifier: 
  pinType: 1
  node: {fileID: 11461010}
  position: {x: 60, y: 120}
  boundsOffset:
    serializedVersion: 2
    x: -40
    y: -15
    width: 80
    height: 15
  tangent: {x: 0, y: 1}
  tangentStrength: 50
--- !u!114 &11488062
MonoBehaviour:
  m_ObjectHideFlags: 1
  m_PrefabParentObject: {fileID: 0}
  m_PrefabInternal: {fileID: 0}
  m_GameObject: {fileID: 0}
  m_Enabled: 1
  m_EditorHideFlags: 0
  m_Script: {fileID: 11500000, guid: 15a4af758c5024ee3ad022895232667f, type: 3}
  m_Name: MarkerNode_73127898-2367-4672-8013-eabef9a816ca_OutputPin
  m_EditorClassIdentifier: 
  pinType: 1
  node: {fileID: 11414310}
  position: {x: 60, y: 48}
  boundsOffset:
    serializedVersion: 2
    x: -40
    y: -15
    width: 80
    height: 15
  tangent: {x: 0, y: 1}
  tangentStrength: 50
--- !u!114 &11490222
MonoBehaviour:
  m_ObjectHideFlags: 1
  m_PrefabParentObject: {fileID: 0}
  m_PrefabInternal: {fileID: 0}
  m_GameObject: {fileID: 0}
  m_Enabled: 1
  m_EditorHideFlags: 0
  m_Script: {fileID: 11500000, guid: c1574844e380142bb9f5e4a8003b85a1, type: 3}
  m_Name: Link_15
  m_EditorClassIdentifier: 
  id: 15
  input: {fileID: 11436772}
  output: {fileID: 11423086}
  graph: {fileID: 11400000}
--- !u!114 &11490716
MonoBehaviour:
  m_ObjectHideFlags: 1
  m_PrefabParentObject: {fileID: 0}
  m_PrefabInternal: {fileID: 0}
  m_GameObject: {fileID: 0}
  m_Enabled: 1
  m_EditorHideFlags: 0
  m_Script: {fileID: 11500000, guid: 15a4af758c5024ee3ad022895232667f, type: 3}
  m_Name: _InputPin
  m_EditorClassIdentifier: 
  pinType: 0
  node: {fileID: 11478724}
  position: {x: 60, y: 0}
  boundsOffset:
    serializedVersion: 2
    x: -40
    y: 0
    width: 80
    height: 15
  tangent: {x: 0, y: -1}
  tangentStrength: 50
--- !u!114 &11493258
MonoBehaviour:
  m_ObjectHideFlags: 1
  m_PrefabParentObject: {fileID: 0}
  m_PrefabInternal: {fileID: 0}
  m_GameObject: {fileID: 0}
  m_Enabled: 1
  m_EditorHideFlags: 0
  m_Script: {fileID: 11500000, guid: 15a4af758c5024ee3ad022895232667f, type: 3}
  m_Name: MarkerEmitterNode_937bf594-4d71-497c-b24c-8c5eff9fec08_InputPin
  m_EditorClassIdentifier: 
  pinType: 0
  node: {fileID: 11433168}
  position: {x: 60, y: -2}
  boundsOffset:
    serializedVersion: 2
    x: -40
    y: 0
    width: 80
    height: 15
  tangent: {x: 0, y: -1}
  tangentStrength: 50
--- !u!114 &11498236
MonoBehaviour:
  m_ObjectHideFlags: 1
  m_PrefabParentObject: {fileID: 0}
  m_PrefabInternal: {fileID: 0}
  m_GameObject: {fileID: 0}
  m_Enabled: 1
  m_EditorHideFlags: 0
  m_Script: {fileID: 11500000, guid: 15a4af758c5024ee3ad022895232667f, type: 3}
  m_Name: _InputPin
  m_EditorClassIdentifier: 
  pinType: 0
  node: {fileID: 11461010}
  position: {x: 60, y: 0}
  boundsOffset:
    serializedVersion: 2
    x: -40
    y: 0
    width: 80
    height: 15
  tangent: {x: 0, y: -1}
  tangentStrength: 50
--- !u!114 &114000010364011420
MonoBehaviour:
  m_ObjectHideFlags: 1
  m_PrefabParentObject: {fileID: 0}
  m_PrefabInternal: {fileID: 0}
  m_GameObject: {fileID: 0}
  m_Enabled: 1
  m_EditorHideFlags: 0
  m_Script: {fileID: 11500000, guid: 15a4af758c5024ee3ad022895232667f, type: 3}
  m_Name: _InputPin
  m_EditorClassIdentifier: 
  pinType: 0
  node: {fileID: 114000011047262866}
  position: {x: 60, y: 0}
  boundsOffset:
    serializedVersion: 2
    x: -40
    y: 0
    width: 80
    height: 15
  tangent: {x: 0, y: -1}
  tangentStrength: 50
--- !u!114 &114000011047262866
MonoBehaviour:
  m_ObjectHideFlags: 1
  m_PrefabParentObject: {fileID: 0}
  m_PrefabInternal: {fileID: 0}
  m_GameObject: {fileID: 0}
  m_Enabled: 1
  m_EditorHideFlags: 0
  m_Script: {fileID: 11500000, guid: dfc1d246dd77b46a4aee970ab911ea63, type: 3}
  m_Name: MeshNode_07b6ae14-fda2-41b3-847d-90f139176779
  m_EditorClassIdentifier: 
  id: 07b6ae14-fda2-41b3-847d-90f139176779
  caption: Game Object Node
  bounds:
    serializedVersion: 2
    x: 537.5208
    y: 80.7377
    width: 120
    height: 120
  selected: 0
  zIndex: 429
  inputPins:
  - {fileID: 114000010364011420}
  outputPins:
  - {fileID: 114000013656897146}
  graph: {fileID: 11400000}
  offset:
    e00: 1
    e01: 0
    e02: 0
    e03: 0
    e10: 0
    e11: 1
    e12: 0
    e13: 0
    e20: 0
    e21: 0
    e22: 1
    e23: 0
    e30: 0
    e31: 0
    e32: 0
    e33: 1
  consumeOnAttach: 1
  attachmentProbability: 1
  IsStatic: 1
  affectsNavigation: 0
  selectionRuleEnabled: 0
  selectionRuleClassName: 
  transformRuleEnabled: 0
  transformRuleClassName: 
  useSpatialConstraint: 0
  spatialConstraint: {fileID: 0}
  Template: {fileID: 195510, guid: cf4159396e3945242a1cf4f2e6a43049, type: 2}
--- !u!114 &114000012771783108
MonoBehaviour:
  m_ObjectHideFlags: 1
  m_PrefabParentObject: {fileID: 0}
  m_PrefabInternal: {fileID: 0}
  m_GameObject: {fileID: 0}
  m_Enabled: 1
  m_EditorHideFlags: 0
  m_Script: {fileID: 11500000, guid: c1574844e380142bb9f5e4a8003b85a1, type: 3}
  m_Name: Link_21
  m_EditorClassIdentifier: 
  id: 21
  input: {fileID: 114000010364011420}
  output: {fileID: 114000014262853292}
  graph: {fileID: 11400000}
--- !u!114 &114000012801009586
MonoBehaviour:
  m_ObjectHideFlags: 1
  m_PrefabParentObject: {fileID: 0}
  m_PrefabInternal: {fileID: 0}
  m_GameObject: {fileID: 0}
  m_Enabled: 1
  m_EditorHideFlags: 0
  m_Script: {fileID: 11500000, guid: 4f86a247f92be461b8448085107abfca, type: 3}
  m_Name: MarkerNode_31b662af-a3aa-4aba-bb1c-51fac4af153b
  m_EditorClassIdentifier: 
  id: 31b662af-a3aa-4aba-bb1c-51fac4af153b
  caption: Park
  bounds:
    serializedVersion: 2
    x: 541.5208
    y: -16.262299
    width: 120
    height: 50
  selected: 0
  zIndex: 225
  inputPins: []
  outputPins:
  - {fileID: 114000014262853292}
  graph: {fileID: 11400000}
--- !u!114 &114000013656897146
MonoBehaviour:
  m_ObjectHideFlags: 1
  m_PrefabParentObject: {fileID: 0}
  m_PrefabInternal: {fileID: 0}
  m_GameObject: {fileID: 0}
  m_Enabled: 1
  m_EditorHideFlags: 0
  m_Script: {fileID: 11500000, guid: 15a4af758c5024ee3ad022895232667f, type: 3}
  m_Name: _OutputPin
  m_EditorClassIdentifier: 
  pinType: 1
  node: {fileID: 114000011047262866}
  position: {x: 60, y: 120}
  boundsOffset:
    serializedVersion: 2
    x: -40
    y: -15
    width: 80
    height: 15
  tangent: {x: 0, y: 1}
  tangentStrength: 50
--- !u!114 &114000014262853292
MonoBehaviour:
  m_ObjectHideFlags: 1
  m_PrefabParentObject: {fileID: 0}
  m_PrefabInternal: {fileID: 0}
  m_GameObject: {fileID: 0}
  m_Enabled: 1
  m_EditorHideFlags: 0
  m_Script: {fileID: 11500000, guid: 15a4af758c5024ee3ad022895232667f, type: 3}
  m_Name: MarkerNode_31b662af-a3aa-4aba-bb1c-51fac4af153b_OutputPin
  m_EditorClassIdentifier: 
  pinType: 1
  node: {fileID: 114000012801009586}
  position: {x: 60, y: 48}
  boundsOffset:
    serializedVersion: 2
    x: -40
    y: -15
    width: 80
    height: 15
  tangent: {x: 0, y: 1}
  tangentStrength: 50
--- !u!114 &114007623053704018
MonoBehaviour:
  m_ObjectHideFlags: 1
  m_PrefabParentObject: {fileID: 0}
  m_PrefabInternal: {fileID: 0}
  m_GameObject: {fileID: 0}
  m_Enabled: 1
  m_EditorHideFlags: 0
  m_Script: {fileID: 11500000, guid: c1574844e380142bb9f5e4a8003b85a1, type: 3}
  m_Name: Link_35
  m_EditorClassIdentifier: 
  id: 35
  input: {fileID: 11498236}
  output: {fileID: 114168495414099790}
  graph: {fileID: 11400000}
--- !u!114 &114069096707937000
MonoBehaviour:
  m_ObjectHideFlags: 1
  m_PrefabParentObject: {fileID: 0}
  m_PrefabInternal: {fileID: 0}
  m_GameObject: {fileID: 0}
  m_Enabled: 1
  m_EditorHideFlags: 0
  m_Script: {fileID: 11500000, guid: 15a4af758c5024ee3ad022895232667f, type: 3}
  m_Name: _InputPin
  m_EditorClassIdentifier: 
  pinType: 0
  node: {fileID: 114350947846536044}
  position: {x: 60, y: 0}
  boundsOffset:
    serializedVersion: 2
    x: -40
    y: 0
    width: 80
    height: 15
  tangent: {x: 0, y: -1}
  tangentStrength: 50
--- !u!114 &114084951148276828
MonoBehaviour:
  m_ObjectHideFlags: 1
  m_PrefabParentObject: {fileID: 0}
  m_PrefabInternal: {fileID: 0}
  m_GameObject: {fileID: 0}
  m_Enabled: 1
  m_EditorHideFlags: 0
  m_Script: {fileID: 11500000, guid: 15a4af758c5024ee3ad022895232667f, type: 3}
  m_Name: _OutputPin
  m_EditorClassIdentifier: 
  pinType: 1
  node: {fileID: 114334669898714102}
  position: {x: 60, y: 120}
  boundsOffset:
    serializedVersion: 2
    x: -40
    y: -15
    width: 80
    height: 15
  tangent: {x: 0, y: 1}
  tangentStrength: 50
--- !u!114 &114167971905814160
MonoBehaviour:
  m_ObjectHideFlags: 1
  m_PrefabParentObject: {fileID: 0}
  m_PrefabInternal: {fileID: 0}
  m_GameObject: {fileID: 0}
  m_Enabled: 1
  m_EditorHideFlags: 0
  m_Script: {fileID: 11500000, guid: 15a4af758c5024ee3ad022895232667f, type: 3}
  m_Name: _OutputPin
  m_EditorClassIdentifier: 
  pinType: 1
  node: {fileID: 114555208171654610}
  position: {x: 60, y: 120}
  boundsOffset:
    serializedVersion: 2
    x: -40
    y: -15
    width: 80
    height: 15
  tangent: {x: 0, y: 1}
  tangentStrength: 50
--- !u!114 &114168477808469442
MonoBehaviour:
  m_ObjectHideFlags: 1
  m_PrefabParentObject: {fileID: 0}
  m_PrefabInternal: {fileID: 0}
  m_GameObject: {fileID: 0}
  m_Enabled: 1
  m_EditorHideFlags: 0
  m_Script: {fileID: 11500000, guid: 4f86a247f92be461b8448085107abfca, type: 3}
  m_Name: MarkerNode_0c5e70cf-0b81-45a6-9404-268bda0b0c3c
  m_EditorClassIdentifier: 
  id: 0c5e70cf-0b81-45a6-9404-268bda0b0c3c
  caption: Road_E
  bounds:
    serializedVersion: 2
    x: 701
    y: 234
    width: 120
    height: 50
  selected: 0
  zIndex: 431
  inputPins: []
  outputPins:
  - {fileID: 114269872388334546}
  graph: {fileID: 11400000}
--- !u!114 &114168495414099790
MonoBehaviour:
  m_ObjectHideFlags: 1
  m_PrefabParentObject: {fileID: 0}
  m_PrefabInternal: {fileID: 0}
  m_GameObject: {fileID: 0}
  m_Enabled: 1
  m_EditorHideFlags: 0
  m_Script: {fileID: 11500000, guid: 15a4af758c5024ee3ad022895232667f, type: 3}
  m_Name: MarkerNode_e0de5848-4dc0-4f3c-b07d-dc99a690f42f_OutputPin
  m_EditorClassIdentifier: 
  pinType: 1
  node: {fileID: 114604811437702678}
  position: {x: 60, y: 48}
  boundsOffset:
    serializedVersion: 2
    x: -40
    y: -15
    width: 80
    height: 15
  tangent: {x: 0, y: 1}
  tangentStrength: 50
--- !u!114 &114246705801163780
MonoBehaviour:
  m_ObjectHideFlags: 1
  m_PrefabParentObject: {fileID: 0}
  m_PrefabInternal: {fileID: 0}
  m_GameObject: {fileID: 0}
  m_Enabled: 1
  m_EditorHideFlags: 0
  m_Script: {fileID: 11500000, guid: 15a4af758c5024ee3ad022895232667f, type: 3}
  m_Name: _InputPin
  m_EditorClassIdentifier: 
  pinType: 0
  node: {fileID: 114334669898714102}
  position: {x: 60, y: 0}
  boundsOffset:
    serializedVersion: 2
    x: -40
    y: 0
    width: 80
    height: 15
  tangent: {x: 0, y: -1}
  tangentStrength: 50
--- !u!114 &114259004682371248
MonoBehaviour:
  m_ObjectHideFlags: 1
  m_PrefabParentObject: {fileID: 0}
  m_PrefabInternal: {fileID: 0}
  m_GameObject: {fileID: 0}
  m_Enabled: 1
  m_EditorHideFlags: 0
  m_Script: {fileID: 11500000, guid: c1574844e380142bb9f5e4a8003b85a1, type: 3}
  m_Name: Link_37
  m_EditorClassIdentifier: 
  id: 37
  input: {fileID: 114246705801163780}
  output: {fileID: 114269872388334546}
  graph: {fileID: 11400000}
--- !u!114 &114269872388334546
MonoBehaviour:
  m_ObjectHideFlags: 1
  m_PrefabParentObject: {fileID: 0}
  m_PrefabInternal: {fileID: 0}
  m_GameObject: {fileID: 0}
  m_Enabled: 1
  m_EditorHideFlags: 0
  m_Script: {fileID: 11500000, guid: 15a4af758c5024ee3ad022895232667f, type: 3}
  m_Name: MarkerNode_0c5e70cf-0b81-45a6-9404-268bda0b0c3c_OutputPin
  m_EditorClassIdentifier: 
  pinType: 1
  node: {fileID: 114168477808469442}
  position: {x: 60, y: 48}
  boundsOffset:
    serializedVersion: 2
    x: -40
    y: -15
    width: 80
    height: 15
  tangent: {x: 0, y: 1}
  tangentStrength: 50
--- !u!114 &114287878555965450
MonoBehaviour:
  m_ObjectHideFlags: 1
  m_PrefabParentObject: {fileID: 0}
  m_PrefabInternal: {fileID: 0}
  m_GameObject: {fileID: 0}
  m_Enabled: 1
  m_EditorHideFlags: 0
  m_Script: {fileID: 11500000, guid: c1574844e380142bb9f5e4a8003b85a1, type: 3}
  m_Name: Link_29
  m_EditorClassIdentifier: 
  id: 29
  input: {fileID: 11471036}
  output: {fileID: 114787794257902040}
  graph: {fileID: 11400000}
--- !u!114 &114316358937074142
MonoBehaviour:
  m_ObjectHideFlags: 1
  m_PrefabParentObject: {fileID: 0}
  m_PrefabInternal: {fileID: 0}
  m_GameObject: {fileID: 0}
  m_Enabled: 1
  m_EditorHideFlags: 0
  m_Script: {fileID: 11500000, guid: c1574844e380142bb9f5e4a8003b85a1, type: 3}
  m_Name: Link_30
  m_EditorClassIdentifier: 
  id: 30
  input: {fileID: 11473050}
  output: {fileID: 114349052973980652}
  graph: {fileID: 11400000}
--- !u!114 &114334669898714102
MonoBehaviour:
  m_ObjectHideFlags: 1
  m_PrefabParentObject: {fileID: 0}
  m_PrefabInternal: {fileID: 0}
  m_GameObject: {fileID: 0}
  m_Enabled: 1
  m_EditorHideFlags: 0
  m_Script: {fileID: 11500000, guid: dfc1d246dd77b46a4aee970ab911ea63, type: 3}
  m_Name: MeshNode_f4478c79-d243-4aee-9b2a-f3b27622668d
  m_EditorClassIdentifier: 
  id: f4478c79-d243-4aee-9b2a-f3b27622668d
  caption: Game Object Node
  bounds:
    serializedVersion: 2
    x: 699.0138
    y: 314.26727
    width: 120
    height: 120
  selected: 0
  zIndex: 430
  inputPins:
  - {fileID: 114246705801163780}
  outputPins:
  - {fileID: 114084951148276828}
  graph: {fileID: 11400000}
  offset:
    e00: 1
    e01: 0
    e02: 0
    e03: 0
    e10: 0
    e11: 1
    e12: 0
    e13: 0
    e20: 0
    e21: 0
    e22: 1
    e23: 0
    e30: 0
    e31: 0
    e32: 0
    e33: 1
  consumeOnAttach: 1
  attachmentProbability: 1
  IsStatic: 1
  affectsNavigation: 0
  selectionRuleEnabled: 0
  selectionRuleClassName: 
  transformRuleEnabled: 0
  transformRuleClassName: 
  useSpatialConstraint: 0
  spatialConstraint: {fileID: 0}
  Template: {fileID: 195510, guid: cf4159396e3945242a1cf4f2e6a43049, type: 2}
--- !u!114 &114341144015542314
MonoBehaviour:
  m_ObjectHideFlags: 1
  m_PrefabParentObject: {fileID: 0}
  m_PrefabInternal: {fileID: 0}
  m_GameObject: {fileID: 0}
  m_Enabled: 1
  m_EditorHideFlags: 0
  m_Script: {fileID: 11500000, guid: 4f86a247f92be461b8448085107abfca, type: 3}
  m_Name: MarkerNode_e8e2f247-2bf5-4128-8d1e-687d01e40498
  m_EditorClassIdentifier: 
  id: e8e2f247-2bf5-4128-8d1e-687d01e40498
  caption: BuildingSmall
  bounds:
    serializedVersion: 2
    x: -457.6819
    y: -47.22177
    width: 120
    height: 50
  selected: 0
  zIndex: 365
  inputPins: []
  outputPins:
  - {fileID: 114349052973980652}
  graph: {fileID: 11400000}
--- !u!114 &114349052973980652
MonoBehaviour:
  m_ObjectHideFlags: 1
  m_PrefabParentObject: {fileID: 0}
  m_PrefabInternal: {fileID: 0}
  m_GameObject: {fileID: 0}
  m_Enabled: 1
  m_EditorHideFlags: 0
  m_Script: {fileID: 11500000, guid: 15a4af758c5024ee3ad022895232667f, type: 3}
  m_Name: MarkerNode_e8e2f247-2bf5-4128-8d1e-687d01e40498_OutputPin
  m_EditorClassIdentifier: 
  pinType: 1
  node: {fileID: 114341144015542314}
  position: {x: 60, y: 48}
  boundsOffset:
    serializedVersion: 2
    x: -40
    y: -15
    width: 80
    height: 15
  tangent: {x: 0, y: 1}
  tangentStrength: 50
--- !u!114 &114350947846536044
MonoBehaviour:
  m_ObjectHideFlags: 1
  m_PrefabParentObject: {fileID: 0}
  m_PrefabInternal: {fileID: 0}
  m_GameObject: {fileID: 0}
  m_Enabled: 1
  m_EditorHideFlags: 0
  m_Script: {fileID: 11500000, guid: dfc1d246dd77b46a4aee970ab911ea63, type: 3}
  m_Name: MeshNode_8e4c265e-bb54-466e-8f93-d7c783c528f6
  m_EditorClassIdentifier: 
  id: 8e4c265e-bb54-466e-8f93-d7c783c528f6
  caption: Game Object Node
  bounds:
    serializedVersion: 2
    x: -70.681885
    y: 46.77823
    width: 120
    height: 120
  selected: 0
  zIndex: 422
  inputPins:
  - {fileID: 114069096707937000}
  outputPins:
  - {fileID: 114971480070614878}
  graph: {fileID: 11400000}
  offset:
    e00: 1
    e01: 0
    e02: 0
    e03: 0
    e10: 0
    e11: 3
    e12: 0
    e13: 0
    e20: 0
    e21: 0
    e22: 1
    e23: 0
    e30: 0
    e31: 0
    e32: 0
    e33: 1
  consumeOnAttach: 1
  attachmentProbability: 1
  IsStatic: 1
  affectsNavigation: 0
  selectionRuleEnabled: 0
  selectionRuleClassName: 
  transformRuleEnabled: 0
  transformRuleClassName: 
  useSpatialConstraint: 0
  spatialConstraint: {fileID: 0}
  Template: {fileID: 195510, guid: ae1a21d4460a34f4db70517976c79116, type: 2}
--- !u!114 &114362866310392414
MonoBehaviour:
  m_ObjectHideFlags: 1
  m_PrefabParentObject: {fileID: 0}
  m_PrefabInternal: {fileID: 0}
  m_GameObject: {fileID: 0}
  m_Enabled: 1
  m_EditorHideFlags: 0
  m_Script: {fileID: 11500000, guid: c1574844e380142bb9f5e4a8003b85a1, type: 3}
  m_Name: Link_32
  m_EditorClassIdentifier: 
  id: 32
  input: {fileID: 114847825412993634}
  output: {fileID: 114450548793771156}
  graph: {fileID: 11400000}
--- !u!114 &114393941712106292
MonoBehaviour:
  m_ObjectHideFlags: 1
  m_PrefabParentObject: {fileID: 0}
  m_PrefabInternal: {fileID: 0}
  m_GameObject: {fileID: 0}
  m_Enabled: 1
  m_EditorHideFlags: 0
  m_Script: {fileID: 11500000, guid: 15a4af758c5024ee3ad022895232667f, type: 3}
  m_Name: _OutputPin
  m_EditorClassIdentifier: 
  pinType: 1
  node: {fileID: 114727457445623044}
  position: {x: 60, y: 120}
  boundsOffset:
    serializedVersion: 2
    x: -40
    y: -15
    width: 80
    height: 15
  tangent: {x: 0, y: 1}
  tangentStrength: 50
--- !u!114 &114410000270842236
MonoBehaviour:
  m_ObjectHideFlags: 1
  m_PrefabParentObject: {fileID: 0}
  m_PrefabInternal: {fileID: 0}
  m_GameObject: {fileID: 0}
  m_Enabled: 1
  m_EditorHideFlags: 0
  m_Script: {fileID: 11500000, guid: 15a4af758c5024ee3ad022895232667f, type: 3}
  m_Name: MarkerNode_d17265ce-3ac9-4a37-9455-eddbe9cf5c35_OutputPin
  m_EditorClassIdentifier: 
  pinType: 1
  node: {fileID: 114446289721893796}
  position: {x: 60, y: 48}
  boundsOffset:
    serializedVersion: 2
    x: -40
    y: -15
    width: 80
    height: 15
  tangent: {x: 0, y: 1}
  tangentStrength: 50
--- !u!114 &114446289721893796
MonoBehaviour:
  m_ObjectHideFlags: 1
  m_PrefabParentObject: {fileID: 0}
  m_PrefabInternal: {fileID: 0}
  m_GameObject: {fileID: 0}
  m_Enabled: 1
  m_EditorHideFlags: 0
  m_Script: {fileID: 11500000, guid: 4f86a247f92be461b8448085107abfca, type: 3}
  m_Name: MarkerNode_d17265ce-3ac9-4a37-9455-eddbe9cf5c35
  m_EditorClassIdentifier: 
  id: d17265ce-3ac9-4a37-9455-eddbe9cf5c35
  caption: CityWall
  bounds:
    serializedVersion: 2
    x: 803
    y: 602
    width: 120
    height: 50
  selected: 0
  zIndex: 424
  inputPins: []
  outputPins:
  - {fileID: 114410000270842236}
  graph: {fileID: 11400000}
--- !u!114 &114450548793771156
MonoBehaviour:
  m_ObjectHideFlags: 1
  m_PrefabParentObject: {fileID: 0}
  m_PrefabInternal: {fileID: 0}
  m_GameObject: {fileID: 0}
  m_Enabled: 1
  m_EditorHideFlags: 0
  m_Script: {fileID: 11500000, guid: 15a4af758c5024ee3ad022895232667f, type: 3}
  m_Name: MarkerNode_a0e35c4e-1966-4527-bd88-b2e416f7e7dc_OutputPin
  m_EditorClassIdentifier: 
  pinType: 1
  node: {fileID: 114464953135632762}
  position: {x: 60, y: 48}
  boundsOffset:
    serializedVersion: 2
    x: -40
    y: -15
    width: 80
    height: 15
  tangent: {x: 0, y: 1}
  tangentStrength: 50
--- !u!114 &114464953135632762
MonoBehaviour:
  m_ObjectHideFlags: 1
  m_PrefabParentObject: {fileID: 0}
  m_PrefabInternal: {fileID: 0}
  m_GameObject: {fileID: 0}
  m_Enabled: 1
  m_EditorHideFlags: 0
  m_Script: {fileID: 11500000, guid: 4f86a247f92be461b8448085107abfca, type: 3}
  m_Name: MarkerNode_a0e35c4e-1966-4527-bd88-b2e416f7e7dc
  m_EditorClassIdentifier: 
  id: a0e35c4e-1966-4527-bd88-b2e416f7e7dc
  caption: BuildingLarge
  bounds:
    serializedVersion: 2
    x: -1003.6819
    y: -43.22177
    width: 120
    height: 50
  selected: 0
  zIndex: 344
  inputPins: []
  outputPins:
  - {fileID: 114450548793771156}
  graph: {fileID: 11400000}
--- !u!114 &114472728497278452
MonoBehaviour:
  m_ObjectHideFlags: 1
  m_PrefabParentObject: {fileID: 0}
  m_PrefabInternal: {fileID: 0}
  m_GameObject: {fileID: 0}
  m_Enabled: 1
  m_EditorHideFlags: 0
  m_Script: {fileID: 11500000, guid: 15a4af758c5024ee3ad022895232667f, type: 3}
  m_Name: MarkerNode_73ae16de-0b81-47f7-8975-aac43e4be8a2_OutputPin
  m_EditorClassIdentifier: 
  pinType: 1
  node: {fileID: 114639122578617648}
  position: {x: 60, y: 48}
  boundsOffset:
    serializedVersion: 2
    x: -40
    y: -15
    width: 80
    height: 15
  tangent: {x: 0, y: 1}
  tangentStrength: 50
--- !u!114 &114555208171654610
MonoBehaviour:
  m_ObjectHideFlags: 1
  m_PrefabParentObject: {fileID: 0}
  m_PrefabInternal: {fileID: 0}
  m_GameObject: {fileID: 0}
  m_Enabled: 1
  m_EditorHideFlags: 0
  m_Script: {fileID: 11500000, guid: dfc1d246dd77b46a4aee970ab911ea63, type: 3}
  m_Name: MeshNode_3a1f3869-caf6-4a92-9e97-d6f9159d26f7
  m_EditorClassIdentifier: 
  id: 3a1f3869-caf6-4a92-9e97-d6f9159d26f7
  caption: Game Object Node
  bounds:
    serializedVersion: 2
    x: -368.6819
    y: 51.77823
    width: 120
    height: 120
  selected: 0
  zIndex: 389
  inputPins:
  - {fileID: 114942434917951532}
  outputPins:
  - {fileID: 114167971905814160}
  graph: {fileID: 11400000}
  offset:
    e00: 1
    e01: 0
    e02: 0
    e03: 0
    e10: 0
    e11: 3
    e12: 0
    e13: 0
    e20: 0
    e21: 0
    e22: 1
    e23: 0
    e30: 0
    e31: 0
    e32: 0
    e33: 1
  consumeOnAttach: 1
  attachmentProbability: 1
  IsStatic: 1
  affectsNavigation: 0
  selectionRuleEnabled: 0
  selectionRuleClassName: 
  transformRuleEnabled: 0
  transformRuleClassName: 
  useSpatialConstraint: 0
  spatialConstraint: {fileID: 0}
  Template: {fileID: 195510, guid: b5bac985f5aac2a44bb913fd1076f084, type: 2}
--- !u!114 &114586486631681112
MonoBehaviour:
  m_ObjectHideFlags: 1
  m_PrefabParentObject: {fileID: 0}
  m_PrefabInternal: {fileID: 0}
  m_GameObject: {fileID: 0}
  m_Enabled: 1
  m_EditorHideFlags: 0
  m_Script: {fileID: 11500000, guid: 15a4af758c5024ee3ad022895232667f, type: 3}
  m_Name: MarkerNode_9365d5a1-d4e1-4556-b838-1d16e6c459f5_OutputPin
  m_EditorClassIdentifier: 
  pinType: 1
  node: {fileID: 114971168132567784}
  position: {x: 60, y: 48}
  boundsOffset:
    serializedVersion: 2
    x: -40
    y: -15
    width: 80
    height: 15
  tangent: {x: 0, y: 1}
  tangentStrength: 50
--- !u!114 &114604811437702678
MonoBehaviour:
  m_ObjectHideFlags: 1
  m_PrefabParentObject: {fileID: 0}
  m_PrefabInternal: {fileID: 0}
  m_GameObject: {fileID: 0}
  m_Enabled: 1
  m_EditorHideFlags: 0
  m_Script: {fileID: 11500000, guid: 4f86a247f92be461b8448085107abfca, type: 3}
  m_Name: MarkerNode_e0de5848-4dc0-4f3c-b07d-dc99a690f42f
  m_EditorClassIdentifier: 
  id: e0de5848-4dc0-4f3c-b07d-dc99a690f42f
  caption: SmallOffice
  bounds:
    serializedVersion: 2
    x: -171.68188
    y: -52.22177
    width: 120
    height: 50
  selected: 0
  zIndex: 420
  inputPins: []
  outputPins:
  - {fileID: 114168495414099790}
  graph: {fileID: 11400000}
--- !u!114 &114609606235136940
MonoBehaviour:
  m_ObjectHideFlags: 1
  m_PrefabParentObject: {fileID: 0}
  m_PrefabInternal: {fileID: 0}
  m_GameObject: {fileID: 0}
  m_Enabled: 1
  m_EditorHideFlags: 0
  m_Script: {fileID: 11500000, guid: c1574844e380142bb9f5e4a8003b85a1, type: 3}
  m_Name: Link_24
  m_EditorClassIdentifier: 
  id: 24
  input: {fileID: 114888512788419316}
  output: {fileID: 11415322}
  graph: {fileID: 11400000}
--- !u!114 &114621726199821282
MonoBehaviour:
  m_ObjectHideFlags: 1
  m_PrefabParentObject: {fileID: 0}
  m_PrefabInternal: {fileID: 0}
  m_GameObject: {fileID: 0}
  m_Enabled: 1
  m_EditorHideFlags: 0
  m_Script: {fileID: 11500000, guid: c1574844e380142bb9f5e4a8003b85a1, type: 3}
  m_Name: Link_28
  m_EditorClassIdentifier: 
  id: 28
  input: {fileID: 11433762}
  output: {fileID: 114450548793771156}
  graph: {fileID: 11400000}
--- !u!114 &114625965216773438
MonoBehaviour:
  m_ObjectHideFlags: 1
  m_PrefabParentObject: {fileID: 0}
  m_PrefabInternal: {fileID: 0}
  m_GameObject: {fileID: 0}
  m_Enabled: 1
  m_EditorHideFlags: 0
  m_Script: {fileID: 11500000, guid: 15a4af758c5024ee3ad022895232667f, type: 3}
  m_Name: _OutputPin
  m_EditorClassIdentifier: 
  pinType: 1
  node: {fileID: 114631304212896266}
  position: {x: 60, y: 120}
  boundsOffset:
    serializedVersion: 2
    x: -40
    y: -15
    width: 80
    height: 15
  tangent: {x: 0, y: 1}
  tangentStrength: 50
--- !u!114 &114631304212896266
MonoBehaviour:
  m_ObjectHideFlags: 1
  m_PrefabParentObject: {fileID: 0}
  m_PrefabInternal: {fileID: 0}
  m_GameObject: {fileID: 0}
  m_Enabled: 1
  m_EditorHideFlags: 0
  m_Script: {fileID: 11500000, guid: dfc1d246dd77b46a4aee970ab911ea63, type: 3}
  m_Name: MeshNode_907c6ded-e311-4a8d-8a1d-78fc5f063f34
  m_EditorClassIdentifier: 
  id: 907c6ded-e311-4a8d-8a1d-78fc5f063f34
  caption: Game Object Node
  bounds:
    serializedVersion: 2
    x: -651.6819
    y: 62.77823
    width: 120
    height: 120
  selected: 0
  zIndex: 385
  inputPins:
  - {fileID: 114739818670132484}
  outputPins:
  - {fileID: 114625965216773438}
  graph: {fileID: 11400000}
  offset:
    e00: 1
    e01: 0
    e02: 0
    e03: 0
    e10: 0
    e11: 3
    e12: 0
    e13: 0
    e20: 0
    e21: 0
    e22: 1
    e23: 0
    e30: 0
    e31: 0
    e32: 0
    e33: 1
  consumeOnAttach: 1
  attachmentProbability: 1
  IsStatic: 1
  affectsNavigation: 0
  selectionRuleEnabled: 0
  selectionRuleClassName: 
  transformRuleEnabled: 0
  transformRuleClassName: 
  useSpatialConstraint: 0
  spatialConstraint: {fileID: 0}
  Template: {fileID: 195510, guid: 9e91fdbbaca9f284aa09ad8db228232d, type: 2}
--- !u!114 &114639122578617648
MonoBehaviour:
  m_ObjectHideFlags: 1
  m_PrefabParentObject: {fileID: 0}
  m_PrefabInternal: {fileID: 0}
  m_GameObject: {fileID: 0}
  m_Enabled: 1
  m_EditorHideFlags: 0
  m_Script: {fileID: 11500000, guid: 4f86a247f92be461b8448085107abfca, type: 3}
  m_Name: MarkerNode_73ae16de-0b81-47f7-8975-aac43e4be8a2
  m_EditorClassIdentifier: 
  id: 73ae16de-0b81-47f7-8975-aac43e4be8a2
  caption: CityDoor
  bounds:
    serializedVersion: 2
    x: 0
    y: 600
    width: 120
    height: 50
  selected: 0
  zIndex: 0
  inputPins: []
  outputPins:
  - {fileID: 114472728497278452}
  graph: {fileID: 11400000}
--- !u!114 &114692220350852344
MonoBehaviour:
  m_ObjectHideFlags: 1
  m_PrefabParentObject: {fileID: 0}
  m_PrefabInternal: {fileID: 0}
  m_GameObject: {fileID: 0}
  m_Enabled: 1
  m_EditorHideFlags: 0
  m_Script: {fileID: 11500000, guid: 15a4af758c5024ee3ad022895232667f, type: 3}
  m_Name: MarkerNode_4498abcd-f98b-435a-a1ba-a74cdba97211_OutputPin
  m_EditorClassIdentifier: 
  pinType: 1
  node: {fileID: 114814002287649958}
  position: {x: 60, y: 48}
  boundsOffset:
    serializedVersion: 2
    x: -40
    y: -15
    width: 80
    height: 15
  tangent: {x: 0, y: 1}
  tangentStrength: 50
--- !u!114 &114727457445623044
MonoBehaviour:
  m_ObjectHideFlags: 1
  m_PrefabParentObject: {fileID: 0}
  m_PrefabInternal: {fileID: 0}
  m_GameObject: {fileID: 0}
  m_Enabled: 1
  m_EditorHideFlags: 0
  m_Script: {fileID: 11500000, guid: dfc1d246dd77b46a4aee970ab911ea63, type: 3}
  m_Name: MeshNode_3731b9b5-7515-4361-a6ae-66c728ff1919
  m_EditorClassIdentifier: 
  id: 3731b9b5-7515-4361-a6ae-66c728ff1919
  caption: Game Object Node
  bounds:
    serializedVersion: 2
    x: 503.3181
    y: 312.77823
    width: 120
    height: 120
  selected: 0
  zIndex: 240
  inputPins:
  - {fileID: 114888512788419316}
  outputPins:
  - {fileID: 114393941712106292}
  graph: {fileID: 11400000}
  offset:
    e00: 0.000000059604645
    e01: 0
    e02: 0.99999994
    e03: 0
    e10: 0
    e11: 1
    e12: 0
    e13: 0
    e20: -0.99999994
    e21: 0
    e22: 0.000000059604645
    e23: 0
    e30: 0
    e31: 0
    e32: 0
    e33: 1
  consumeOnAttach: 1
  attachmentProbability: 1
  IsStatic: 1
  affectsNavigation: 0
  selectionRuleEnabled: 0
  selectionRuleClassName: 
  transformRuleEnabled: 0
  transformRuleClassName: 
  useSpatialConstraint: 0
  spatialConstraint: {fileID: 0}
  Template: {fileID: 137074, guid: 9fe7b502402e5d040babe758f7d05fc2, type: 2}
--- !u!114 &114739818670132484
MonoBehaviour:
  m_ObjectHideFlags: 1
  m_PrefabParentObject: {fileID: 0}
  m_PrefabInternal: {fileID: 0}
  m_GameObject: {fileID: 0}
  m_Enabled: 1
  m_EditorHideFlags: 0
  m_Script: {fileID: 11500000, guid: 15a4af758c5024ee3ad022895232667f, type: 3}
  m_Name: _InputPin
  m_EditorClassIdentifier: 
  pinType: 0
  node: {fileID: 114631304212896266}
  position: {x: 60, y: 0}
  boundsOffset:
    serializedVersion: 2
    x: -40
    y: 0
    width: 80
    height: 15
  tangent: {x: 0, y: -1}
  tangentStrength: 50
--- !u!114 &114767092263252116
MonoBehaviour:
  m_ObjectHideFlags: 1
  m_PrefabParentObject: {fileID: 0}
  m_PrefabInternal: {fileID: 0}
  m_GameObject: {fileID: 0}
  m_Enabled: 1
  m_EditorHideFlags: 0
  m_Script: {fileID: 11500000, guid: c1574844e380142bb9f5e4a8003b85a1, type: 3}
  m_Name: Link_34
  m_EditorClassIdentifier: 
  id: 34
  input: {fileID: 114942434917951532}
  output: {fileID: 114349052973980652}
  graph: {fileID: 11400000}
--- !u!114 &114780001093499740
MonoBehaviour:
  m_ObjectHideFlags: 1
  m_PrefabParentObject: {fileID: 0}
  m_PrefabInternal: {fileID: 0}
  m_GameObject: {fileID: 0}
  m_Enabled: 1
  m_EditorHideFlags: 0
  m_Script: {fileID: 11500000, guid: dfc1d246dd77b46a4aee970ab911ea63, type: 3}
  m_Name: MeshNode_d88d7c74-8b4b-4ad4-b9dd-937e777d0b01
  m_EditorClassIdentifier: 
  id: d88d7c74-8b4b-4ad4-b9dd-937e777d0b01
  caption: Game Object Node
  bounds:
    serializedVersion: 2
    x: -920.6819
    y: 66.77823
    width: 120
    height: 120
  selected: 0
  zIndex: 378
  inputPins:
  - {fileID: 114847825412993634}
  outputPins:
  - {fileID: 114949861590292830}
  graph: {fileID: 11400000}
  offset:
    e00: 1
    e01: 0
    e02: 0
    e03: 0
    e10: 0
    e11: 4
    e12: 0
    e13: 0
    e20: 0
    e21: 0
    e22: 1
    e23: 0
    e30: 0
    e31: 0
    e32: 0
    e33: 1
  consumeOnAttach: 1
  attachmentProbability: 1
  IsStatic: 1
  affectsNavigation: 0
  selectionRuleEnabled: 0
  selectionRuleClassName: 
  transformRuleEnabled: 0
  transformRuleClassName: 
  useSpatialConstraint: 0
  spatialConstraint: {fileID: 0}
  Template: {fileID: 195510, guid: ee5920b14a854aa44b60a740a8285cdc, type: 2}
--- !u!114 &114787794257902040
MonoBehaviour:
  m_ObjectHideFlags: 1
  m_PrefabParentObject: {fileID: 0}
  m_PrefabInternal: {fileID: 0}
  m_GameObject: {fileID: 0}
  m_Enabled: 1
  m_EditorHideFlags: 0
  m_Script: {fileID: 11500000, guid: 15a4af758c5024ee3ad022895232667f, type: 3}
  m_Name: MarkerNode_04fb6110-a023-42e8-a22b-5beb01e2fea0_OutputPin
  m_EditorClassIdentifier: 
  pinType: 1
  node: {fileID: 114984221254245064}
  position: {x: 60, y: 48}
  boundsOffset:
    serializedVersion: 2
    x: -40
    y: -15
    width: 80
    height: 15
  tangent: {x: 0, y: 1}
  tangentStrength: 50
--- !u!114 &114788849738523656
MonoBehaviour:
  m_ObjectHideFlags: 1
  m_PrefabParentObject: {fileID: 0}
  m_PrefabInternal: {fileID: 0}
  m_GameObject: {fileID: 0}
  m_Enabled: 1
  m_EditorHideFlags: 0
  m_Script: {fileID: 11500000, guid: 4f86a247f92be461b8448085107abfca, type: 3}
  m_Name: MarkerNode_37b1baef-1595-46ff-86bd-4697d0a7cc6c
  m_EditorClassIdentifier: 
  id: 37b1baef-1595-46ff-86bd-4697d0a7cc6c
  caption: CornerTower
  bounds:
    serializedVersion: 2
    x: 400
    y: 600
    width: 120
    height: 50
  selected: 0
  zIndex: 0
  inputPins: []
  outputPins:
  - {fileID: 114890190647040112}
  graph: {fileID: 11400000}
--- !u!114 &114814002287649958
MonoBehaviour:
  m_ObjectHideFlags: 1
  m_PrefabParentObject: {fileID: 0}
  m_PrefabInternal: {fileID: 0}
  m_GameObject: {fileID: 0}
  m_Enabled: 1
  m_EditorHideFlags: 0
  m_Script: {fileID: 11500000, guid: 4f86a247f92be461b8448085107abfca, type: 3}
  m_Name: MarkerNode_4498abcd-f98b-435a-a1ba-a74cdba97211
  m_EditorClassIdentifier: 
  id: 4498abcd-f98b-435a-a1ba-a74cdba97211
  caption: CityWallPadding
  bounds:
    serializedVersion: 2
    x: 600
    y: 600
    width: 120
    height: 50
  selected: 0
  zIndex: 0
  inputPins: []
  outputPins:
  - {fileID: 114692220350852344}
  graph: {fileID: 11400000}
--- !u!114 &114847825412993634
MonoBehaviour:
  m_ObjectHideFlags: 1
  m_PrefabParentObject: {fileID: 0}
  m_PrefabInternal: {fileID: 0}
  m_GameObject: {fileID: 0}
  m_Enabled: 1
  m_EditorHideFlags: 0
  m_Script: {fileID: 11500000, guid: 15a4af758c5024ee3ad022895232667f, type: 3}
  m_Name: _InputPin
  m_EditorClassIdentifier: 
  pinType: 0
  node: {fileID: 114780001093499740}
  position: {x: 60, y: 0}
  boundsOffset:
    serializedVersion: 2
    x: -40
    y: 0
    width: 80
    height: 15
  tangent: {x: 0, y: -1}
  tangentStrength: 50
--- !u!114 &114888512788419316
MonoBehaviour:
  m_ObjectHideFlags: 1
  m_PrefabParentObject: {fileID: 0}
  m_PrefabInternal: {fileID: 0}
  m_GameObject: {fileID: 0}
  m_Enabled: 1
  m_EditorHideFlags: 0
  m_Script: {fileID: 11500000, guid: 15a4af758c5024ee3ad022895232667f, type: 3}
  m_Name: _InputPin
  m_EditorClassIdentifier: 
  pinType: 0
  node: {fileID: 114727457445623044}
  position: {x: 60, y: 0}
  boundsOffset:
    serializedVersion: 2
    x: -40
    y: 0
    width: 80
    height: 15
  tangent: {x: 0, y: -1}
  tangentStrength: 50
--- !u!114 &114890190647040112
MonoBehaviour:
  m_ObjectHideFlags: 1
  m_PrefabParentObject: {fileID: 0}
  m_PrefabInternal: {fileID: 0}
  m_GameObject: {fileID: 0}
  m_Enabled: 1
  m_EditorHideFlags: 0
  m_Script: {fileID: 11500000, guid: 15a4af758c5024ee3ad022895232667f, type: 3}
  m_Name: MarkerNode_37b1baef-1595-46ff-86bd-4697d0a7cc6c_OutputPin
  m_EditorClassIdentifier: 
  pinType: 1
  node: {fileID: 114788849738523656}
  position: {x: 60, y: 48}
  boundsOffset:
    serializedVersion: 2
    x: -40
    y: -15
    width: 80
    height: 15
  tangent: {x: 0, y: 1}
  tangentStrength: 50
--- !u!114 &114922695413392476
MonoBehaviour:
  m_ObjectHideFlags: 1
  m_PrefabParentObject: {fileID: 0}
  m_PrefabInternal: {fileID: 0}
  m_GameObject: {fileID: 0}
  m_Enabled: 1
  m_EditorHideFlags: 0
  m_Script: {fileID: 11500000, guid: c1574844e380142bb9f5e4a8003b85a1, type: 3}
  m_Name: Link_33
  m_EditorClassIdentifier: 
  id: 33
  input: {fileID: 114739818670132484}
  output: {fileID: 114787794257902040}
  graph: {fileID: 11400000}
--- !u!114 &114942434917951532
MonoBehaviour:
  m_ObjectHideFlags: 1
  m_PrefabParentObject: {fileID: 0}
  m_PrefabInternal: {fileID: 0}
  m_GameObject: {fileID: 0}
  m_Enabled: 1
  m_EditorHideFlags: 0
  m_Script: {fileID: 11500000, guid: 15a4af758c5024ee3ad022895232667f, type: 3}
  m_Name: _InputPin
  m_EditorClassIdentifier: 
  pinType: 0
  node: {fileID: 114555208171654610}
  position: {x: 60, y: 0}
  boundsOffset:
    serializedVersion: 2
    x: -40
    y: 0
    width: 80
    height: 15
  tangent: {x: 0, y: -1}
  tangentStrength: 50
--- !u!114 &114945794888715148
MonoBehaviour:
  m_ObjectHideFlags: 1
  m_PrefabParentObject: {fileID: 0}
  m_PrefabInternal: {fileID: 0}
  m_GameObject: {fileID: 0}
  m_Enabled: 1
  m_EditorHideFlags: 0
  m_Script: {fileID: 11500000, guid: c1574844e380142bb9f5e4a8003b85a1, type: 3}
  m_Name: Link_36
  m_EditorClassIdentifier: 
  id: 36
  input: {fileID: 114069096707937000}
  output: {fileID: 114168495414099790}
  graph: {fileID: 11400000}
--- !u!114 &114949861590292830
MonoBehaviour:
  m_ObjectHideFlags: 1
  m_PrefabParentObject: {fileID: 0}
  m_PrefabInternal: {fileID: 0}
  m_GameObject: {fileID: 0}
  m_Enabled: 1
  m_EditorHideFlags: 0
  m_Script: {fileID: 11500000, guid: 15a4af758c5024ee3ad022895232667f, type: 3}
  m_Name: _OutputPin
  m_EditorClassIdentifier: 
  pinType: 1
  node: {fileID: 114780001093499740}
  position: {x: 60, y: 120}
  boundsOffset:
    serializedVersion: 2
    x: -40
    y: -15
    width: 80
    height: 15
  tangent: {x: 0, y: 1}
  tangentStrength: 50
--- !u!114 &114971168132567784
MonoBehaviour:
  m_ObjectHideFlags: 1
  m_PrefabParentObject: {fileID: 0}
  m_PrefabInternal: {fileID: 0}
  m_GameObject: {fileID: 0}
  m_Enabled: 1
  m_EditorHideFlags: 0
  m_Script: {fileID: 11500000, guid: 4f86a247f92be461b8448085107abfca, type: 3}
  m_Name: MarkerNode_9365d5a1-d4e1-4556-b838-1d16e6c459f5
  m_EditorClassIdentifier: 
  id: 9365d5a1-d4e1-4556-b838-1d16e6c459f5
  caption: CityGround
  bounds:
    serializedVersion: 2
    x: 200
    y: 600
    width: 120
    height: 50
  selected: 0
  zIndex: 0
  inputPins: []
  outputPins:
  - {fileID: 114586486631681112}
  graph: {fileID: 11400000}
--- !u!114 &114971480070614878
MonoBehaviour:
  m_ObjectHideFlags: 1
  m_PrefabParentObject: {fileID: 0}
  m_PrefabInternal: {fileID: 0}
  m_GameObject: {fileID: 0}
  m_Enabled: 1
  m_EditorHideFlags: 0
  m_Script: {fileID: 11500000, guid: 15a4af758c5024ee3ad022895232667f, type: 3}
  m_Name: _OutputPin
  m_EditorClassIdentifier: 
  pinType: 1
  node: {fileID: 114350947846536044}
  position: {x: 60, y: 120}
  boundsOffset:
    serializedVersion: 2
    x: -40
    y: -15
    width: 80
    height: 15
  tangent: {x: 0, y: 1}
  tangentStrength: 50
--- !u!114 &114975507789600128
MonoBehaviour:
  m_ObjectHideFlags: 1
  m_PrefabParentObject: {fileID: 0}
  m_PrefabInternal: {fileID: 0}
  m_GameObject: {fileID: 0}
  m_Enabled: 1
  m_EditorHideFlags: 0
  m_Script: {fileID: 11500000, guid: c1574844e380142bb9f5e4a8003b85a1, type: 3}
  m_Name: Link_22
  m_EditorClassIdentifier: 
  id: 22
  input: {fileID: 11426478}
  output: {fileID: 11415164}
  graph: {fileID: 11400000}
--- !u!114 &114984221254245064
MonoBehaviour:
  m_ObjectHideFlags: 1
  m_PrefabParentObject: {fileID: 0}
  m_PrefabInternal: {fileID: 0}
  m_GameObject: {fileID: 0}
  m_Enabled: 1
  m_EditorHideFlags: 0
  m_Script: {fileID: 11500000, guid: 4f86a247f92be461b8448085107abfca, type: 3}
  m_Name: MarkerNode_04fb6110-a023-42e8-a22b-5beb01e2fea0
  m_EditorClassIdentifier: 
  id: 04fb6110-a023-42e8-a22b-5beb01e2fea0
  caption: BuildingMedium
  bounds:
    serializedVersion: 2
    x: -728.6819
    y: -39.22177
    width: 120
    height: 50
  selected: 0
  zIndex: 354
  inputPins: []
  outputPins:
  - {fileID: 114787794257902040}
  graph: {fileID: 11400000}
