{
  "client": [
    {
      "services": {
        "appinvite_service": {
          "status": 1
        }, 
        "analytics_service": {
          "status": 0
        }
      }, 
      "oauth_client": [
        {
          "client_id": "435419924512-ppta85vj7286hoel75g2de60c5hgiugh.apps.googleusercontent.com"
        }
      ], 
      "api_key": [
        {
          "current_key": "AIzaSyA6nrgxrpTz2B85R54gmIQhCON42DGk6ho"
        }
      ], 
      "client_info": {
        "mobilesdk_app_id": "1:435419924512:ios:6c7ae516450524fa095445", 
        "android_client_info": {
          "package_name": "com.elebah.blockcitycop"
        }
      }
    }
  ], 
  "configuration_version": "1", 
  "project_info": {
    "storage_bucket": "block-cop-game.appspot.com", 
    "project_id": "block-cop-game", 
    "firebase_url": "https://block-cop-game.firebaseio.com", 
    "project_number": "435419924512"
  }
}